! Sonnet Data File
! From: emclient Version : 17.56
! From Project: 50Ohm_unit_cell_with_bridge
! Data is De-embedded 
! Data File Written: 12/13/2022 11:13:58
!< HDATE 12/12/2022 12:32:29
!< MDATE 12/12/2022 12:32:29
# GHZ S RI R 50.00000
0.500000000000000 -1.261567056e-5 -1.760922491e-3 0.9999727873601 -7.164044403e-3 0.9999727873600 -7.164044403e-3 -1.261566988e-5 -1.760922491e-3
! P1 F=0.5 Eeff=(6.41537 + j0) Z0=(51.2243 + j0)
! P2 F=0.5 Eeff=(6.41537 + j0) Z0=(51.2243 + j0)
0.510000000000000 -1.312534242e-5 -1.796140899e-3 0.9999716879837 -7.307320452e-3 0.9999716879837 -7.307320452e-3 -1.312534175e-5 -1.796140899e-3
0.520000000000000 -1.364510708e-5 -1.831359183e-3 0.9999705668380 -7.450596335e-3 0.9999705668380 -7.450596335e-3 -1.364510643e-5 -1.831359183e-3
0.530000000000000 -1.417496451e-5 -1.866577339e-3 0.9999694239233 -7.593872051e-3 0.9999694239233 -7.593872051e-3 -1.417496387e-5 -1.866577339e-3
0.540000000000000 -1.471491468e-5 -1.901795367e-3 0.9999682592397 -7.737147594e-3 0.9999682592397 -7.737147594e-3 -1.471491404e-5 -1.901795367e-3
0.550000000000000 -1.526495753e-5 -1.937013263e-3 0.9999670727871 -7.880422962e-3 0.9999670727871 -7.880422962e-3 -1.526495690e-5 -1.937013263e-3
0.560000000000000 -1.582509304e-5 -1.972231025e-3 0.9999658645657 -8.023698152e-3 0.9999658645657 -8.023698152e-3 -1.582509242e-5 -1.972231025e-3
0.570000000000000 -1.639532117e-5 -2.007448652e-3 0.9999646345753 -8.166973158e-3 0.9999646345753 -8.166973158e-3 -1.639532056e-5 -2.007448652e-3
0.580000000000000 -1.697564188e-5 -2.042666142e-3 0.9999633828162 -8.310247979e-3 0.9999633828162 -8.310247979e-3 -1.697564128e-5 -2.042666142e-3
0.590000000000000 -1.756605513e-5 -2.077883492e-3 0.9999621092882 -8.453522610e-3 0.9999621092882 -8.453522610e-3 -1.756605454e-5 -2.077883492e-3
0.600000000000000 -1.816656089e-5 -2.113100699e-3 0.9999608139914 -8.596797048e-3 0.9999608139914 -8.596797048e-3 -1.816656030e-5 -2.113100699e-3
0.610000000000000 -1.877715911e-5 -2.148317763e-3 0.9999594969258 -8.740071289e-3 0.9999594969258 -8.740071289e-3 -1.877715853e-5 -2.148317763e-3
0.620000000000000 -1.939784976e-5 -2.183534681e-3 0.9999581580915 -8.883345330e-3 0.9999581580915 -8.883345330e-3 -1.939784919e-5 -2.183534681e-3
0.630000000000000 -2.002863280e-5 -2.218751451e-3 0.9999567974885 -9.026619166e-3 0.9999567974885 -9.026619166e-3 -2.002863223e-5 -2.218751451e-3
0.640000000000000 -2.066950818e-5 -2.253968070e-3 0.9999554151168 -9.169892795e-3 0.9999554151168 -9.169892795e-3 -2.066950762e-5 -2.253968070e-3
0.650000000000000 -2.132047587e-5 -2.289184537e-3 0.9999540109764 -9.313166213e-3 0.9999540109764 -9.313166213e-3 -2.132047532e-5 -2.289184537e-3
0.660000000000000 -2.198153583e-5 -2.324400850e-3 0.9999525850674 -9.456439417e-3 0.9999525850674 -9.456439417e-3 -2.198153528e-5 -2.324400850e-3
0.670000000000000 -2.265268801e-5 -2.359617006e-3 0.9999511373898 -9.599712402e-3 0.9999511373898 -9.599712402e-3 -2.265268748e-5 -2.359617006e-3
0.680000000000000 -2.333393238e-5 -2.394833003e-3 0.9999496679437 -9.742985165e-3 0.9999496679437 -9.742985165e-3 -2.333393185e-5 -2.394833003e-3
0.690000000000000 -2.402526890e-5 -2.430048839e-3 0.9999481767291 -9.886257703e-3 0.9999481767291 -9.886257703e-3 -2.402526838e-5 -2.430048839e-3
0.700000000000000 -2.472669752e-5 -2.465264513e-3 0.9999466637459 -0.010029530012 0.9999466637459 -0.010029530012 -2.472669700e-5 -2.465264513e-3
0.710000000000000 -2.543821820e-5 -2.500480021e-3 0.9999451289943 -0.010172802088 0.9999451289943 -0.010172802088 -2.543821769e-5 -2.500480021e-3
0.720000000000000 -2.615983090e-5 -2.535695363e-3 0.9999435724742 -0.010316073928 0.9999435724742 -0.010316073928 -2.615983040e-5 -2.535695363e-3
0.730000000000000 -2.689153558e-5 -2.570910535e-3 0.9999419941858 -0.010459345529 0.9999419941858 -0.010459345529 -2.689153508e-5 -2.570910535e-3
0.740000000000000 -2.763333220e-5 -2.606125536e-3 0.9999403941290 -0.010602616886 0.9999403941290 -0.010602616886 -2.763333170e-5 -2.606125536e-3
0.750000000000000 -2.838522070e-5 -2.641340363e-3 0.9999387723039 -0.010745887996 0.9999387723039 -0.010745887996 -2.838522022e-5 -2.641340363e-3
0.760000000000000 -2.914720106e-5 -2.676555015e-3 0.9999371287105 -0.010889158856 0.9999371287105 -0.010889158856 -2.914720058e-5 -2.676555015e-3
0.770000000000000 -2.991927322e-5 -2.711769489e-3 0.9999354633488 -0.011032429462 0.9999354633488 -0.011032429462 -2.991927275e-5 -2.711769489e-3
0.780000000000000 -3.070143715e-5 -2.746983784e-3 0.9999337762190 -0.011175699811 0.9999337762190 -0.011175699811 -3.070143668e-5 -2.746983784e-3
0.790000000000000 -3.149369279e-5 -2.782197897e-3 0.9999320673210 -0.011318969898 0.9999320673210 -0.011318969898 -3.149369232e-5 -2.782197897e-3
0.800000000000000 -3.229604011e-5 -2.817411825e-3 0.9999303366548 -0.011462239720 0.9999303366548 -0.011462239720 -3.229603965e-5 -2.817411825e-3
0.810000000000000 -3.310847905e-5 -2.852625568e-3 0.9999285842206 -0.011605509275 0.9999285842206 -0.011605509275 -3.310847860e-5 -2.852625568e-3
0.820000000000000 -3.393100959e-5 -2.887839122e-3 0.9999268100183 -0.011748778557 0.9999268100183 -0.011748778557 -3.393100913e-5 -2.887839122e-3
0.830000000000000 -3.476363166e-5 -2.923052486e-3 0.9999250140481 -0.011892047564 0.9999250140481 -0.011892047564 -3.476363121e-5 -2.923052486e-3
0.840000000000000 -3.560634522e-5 -2.958265658e-3 0.9999231963098 -0.012035316292 0.9999231963098 -0.012035316292 -3.560634478e-5 -2.958265658e-3
0.850000000000000 -3.645915023e-5 -2.993478636e-3 0.9999213568037 -0.012178584737 0.9999213568037 -0.012178584737 -3.645914980e-5 -2.993478636e-3
0.860000000000000 -3.732204665e-5 -3.028691416e-3 0.9999194955296 -0.012321852896 0.9999194955296 -0.012321852896 -3.732204621e-5 -3.028691416e-3
0.870000000000000 -3.819503442e-5 -3.063903998e-3 0.9999176124878 -0.012465120765 0.9999176124878 -0.012465120765 -3.819503399e-5 -3.063903998e-3
0.880000000000000 -3.907811350e-5 -3.099116379e-3 0.9999157076781 -0.012608388342 0.9999157076781 -0.012608388342 -3.907811307e-5 -3.099116379e-3
0.890000000000000 -3.997128384e-5 -3.134328558e-3 0.9999137811007 -0.012751655621 0.9999137811007 -0.012751655621 -3.997128342e-5 -3.134328558e-3
0.900000000000000 -4.087454540e-5 -3.169540531e-3 0.9999118327556 -0.012894922599 0.9999118327556 -0.012894922599 -4.087454498e-5 -3.169540531e-3
0.910000000000000 -4.178789812e-5 -3.204752297e-3 0.9999098626429 -0.013038189274 0.9999098626429 -0.013038189274 -4.178789771e-5 -3.204752297e-3
0.920000000000000 -4.271134197e-5 -3.239963854e-3 0.9999078707626 -0.013181455641 0.9999078707626 -0.013181455641 -4.271134156e-5 -3.239963854e-3
0.930000000000000 -4.364487688e-5 -3.275175199e-3 0.9999058571147 -0.013324721697 0.9999058571147 -0.013324721697 -4.364487647e-5 -3.275175200e-3
0.940000000000000 -4.458850282e-5 -3.310386332e-3 0.9999038216993 -0.013467987438 0.9999038216993 -0.013467987438 -4.458850242e-5 -3.310386332e-3
0.950000000000000 -4.554221973e-5 -3.345597248e-3 0.9999017645165 -0.013611252861 0.9999017645165 -0.013611252861 -4.554221933e-5 -3.345597248e-3
0.960000000000000 -4.650602757e-5 -3.380807947e-3 0.9998996855662 -0.013754517962 0.9998996855662 -0.013754517962 -4.650602718e-5 -3.380807947e-3
0.970000000000000 -4.747992629e-5 -3.416018426e-3 0.9998975848486 -0.013897782737 0.9998975848486 -0.013897782737 -4.747992589e-5 -3.416018426e-3
0.980000000000000 -4.846391583e-5 -3.451228684e-3 0.9998954623637 -0.014041047183 0.9998954623637 -0.014041047183 -4.846391544e-5 -3.451228684e-3
0.990000000000000 -4.945799615e-5 -3.486438717e-3 0.9998933181116 -0.014184311297 0.9998933181116 -0.014184311297 -4.945799576e-5 -3.486438717e-3
1.000000000000000 -5.046216719e-5 -3.521648524e-3 0.9998911520923 -0.014327575074 0.9998911520923 -0.014327575074 -5.046216681e-5 -3.521648524e-3
1.010000000000000 -5.147642892e-5 -3.556858103e-3 0.9998889643058 -0.014470838512 0.9998889643058 -0.014470838512 -5.147642853e-5 -3.556858103e-3
1.020000000000000 -5.250078126e-5 -3.592067452e-3 0.9998867547522 -0.014614101606 0.9998867547522 -0.014614101606 -5.250078088e-5 -3.592067452e-3
1.030000000000000 -5.353522419e-5 -3.627276568e-3 0.9998845234305 -0.014757364354 0.9998845234307 -0.014757364354 -5.353522381e-5 -3.627276568e-3
! P1 F=1.03 Eeff=(6.41535 + j0) Z0=(51.2242 + j0)
! P2 F=1.03 Eeff=(6.41535 + j0) Z0=(51.2242 + j0)
1.040000000000000 -5.457975763e-5 -3.662485450e-3 0.9998822703440 -0.014900626751 0.9998822703440 -0.014900626751 -5.457975726e-5 -3.662485450e-3
1.050000000000000 -5.563438155e-5 -3.697694096e-3 0.9998799954895 -0.015043888794 0.9998799954895 -0.015043888794 -5.563438117e-5 -3.697694096e-3
1.060000000000000 -5.669909588e-5 -3.732902502e-3 0.9998776988682 -0.015187150479 0.9998776988682 -0.015187150479 -5.669909551e-5 -3.732902502e-3
1.070000000000000 -5.777390059e-5 -3.768110668e-3 0.9998753804800 -0.015330411803 0.9998753804800 -0.015330411803 -5.777390022e-5 -3.768110668e-3
1.080000000000000 -5.885879561e-5 -3.803318591e-3 0.9998730403251 -0.015473672762 0.9998730403251 -0.015473672762 -5.885879524e-5 -3.803318591e-3
1.090000000000000 -5.995378089e-5 -3.838526269e-3 0.9998706784035 -0.015616933353 0.9998706784035 -0.015616933353 -5.995378052e-5 -3.838526269e-3
1.100000000000000 -6.105885638e-5 -3.873733699e-3 0.9998682947152 -0.015760193571 0.9998682947152 -0.015760193571 -6.105885602e-5 -3.873733699e-3
1.110000000000000 -6.217402203e-5 -3.908940881e-3 0.9998658892604 -0.015903453415 0.9998658892604 -0.015903453415 -6.217402166e-5 -3.908940881e-3
1.120000000000000 -6.329927777e-5 -3.944147811e-3 0.9998634620391 -0.016046712879 0.9998634620391 -0.016046712879 -6.329927741e-5 -3.944147811e-3
1.130000000000000 -6.443462357e-5 -3.979354488e-3 0.9998610130513 -0.016189971960 0.9998610130513 -0.016189971960 -6.443462321e-5 -3.979354488e-3
1.140000000000000 -6.558005936e-5 -4.014560909e-3 0.9998585422972 -0.016333230656 0.9998585422972 -0.016333230656 -6.558005900e-5 -4.014560909e-3
1.150000000000000 -6.673558509e-5 -4.049767072e-3 0.9998560497767 -0.016476488961 0.9998560497767 -0.016476488961 -6.673558473e-5 -4.049767072e-3
1.160000000000000 -6.790120071e-5 -4.084972976e-3 0.9998535354900 -0.016619746873 0.9998535354900 -0.016619746873 -6.790120035e-5 -4.084972976e-3
1.170000000000000 -6.907690615e-5 -4.120178618e-3 0.9998509994370 -0.016763004388 0.9998509994370 -0.016763004388 -6.907690579e-5 -4.120178618e-3
1.180000000000000 -7.026270137e-5 -4.155383996e-3 0.9998484416180 -0.016906261503 0.9998484416180 -0.016906261503 -7.026270101e-5 -4.155383996e-3
1.190000000000000 -7.145858630e-5 -4.190589107e-3 0.9998458620328 -0.017049518213 0.9998458620328 -0.017049518213 -7.145858595e-5 -4.190589107e-3
1.200000000000000 -7.266456090e-5 -4.225793951e-3 0.9998432606817 -0.017192774516 0.9998432606817 -0.017192774516 -7.266456055e-5 -4.225793951e-3
1.210000000000000 -7.388062510e-5 -4.260998524e-3 0.9998406375646 -0.017336030407 0.9998406375646 -0.017336030407 -7.388062475e-5 -4.260998524e-3
1.220000000000000 -7.510677886e-5 -4.296202825e-3 0.9998379926817 -0.017479285884 0.9998379926817 -0.017479285884 -7.510677851e-5 -4.296202825e-3
1.230000000000000 -7.634302210e-5 -4.331406852e-3 0.9998353260330 -0.017622540942 0.9998353260330 -0.017622540942 -7.634302176e-5 -4.331406852e-3
1.240000000000000 -7.758935479e-5 -4.366610601e-3 0.9998326376185 -0.017765795578 0.9998326376185 -0.017765795578 -7.758935444e-5 -4.366610601e-3
1.250000000000000 -7.884577684e-5 -4.401814072e-3 0.9998299274384 -0.017909049789 0.9998299274384 -0.017909049789 -7.884577650e-5 -4.401814073e-3
1.260000000000000 -8.011228822e-5 -4.437017263e-3 0.9998271954927 -0.018052303571 0.9998271954927 -0.018052303571 -8.011228788e-5 -4.437017263e-3
1.270000000000000 -8.138888887e-5 -4.472220170e-3 0.9998244417814 -0.018195556919 0.9998244417814 -0.018195556919 -8.138888852e-5 -4.472220170e-3
1.280000000000000 -8.267557871e-5 -4.507422792e-3 0.9998216663048 -0.018338809832 0.9998216663048 -0.018338809832 -8.267557836e-5 -4.507422792e-3
1.290000000000000 -8.397235770e-5 -4.542625128e-3 0.9998188690627 -0.018482062305 0.9998188690627 -0.018482062305 -8.397235735e-5 -4.542625128e-3
1.300000000000000 -8.527922578e-5 -4.577827173e-3 0.9998160500553 -0.018625314334 0.9998160500553 -0.018625314334 -8.527922543e-5 -4.577827173e-3
1.310000000000000 -8.659618288e-5 -4.613028928e-3 0.9998132092828 -0.018768565916 0.9998132092828 -0.018768565916 -8.659618253e-5 -4.613028928e-3
1.320000000000000 -8.792322895e-5 -4.648230389e-3 0.9998103467450 -0.018911817048 0.9998103467450 -0.018911817048 -8.792322860e-5 -4.648230389e-3
1.330000000000000 -8.926036393e-5 -4.683431555e-3 0.9998074624422 -0.019055067725 0.9998074624422 -0.019055067725 -8.926036358e-5 -4.683431555e-3
1.340000000000000 -9.060758775e-5 -4.718632423e-3 0.9998045563743 -0.019198317945 0.9998045563743 -0.019198317945 -9.060758740e-5 -4.718632423e-3
1.350000000000000 -9.196490036e-5 -4.753832991e-3 0.9998016285416 -0.019341567704 0.9998016285416 -0.019341567704 -9.196490002e-5 -4.753832991e-3
1.360000000000000 -9.333230170e-5 -4.789033257e-3 0.9997986789439 -0.019484816997 0.9997986789439 -0.019484816997 -9.333230135e-5 -4.789033257e-3
1.370000000000000 -9.470979170e-5 -4.824233219e-3 0.9997957075815 -0.019628065822 0.9997957075815 -0.019628065822 -9.470979136e-5 -4.824233219e-3
1.380000000000000 -9.609737031e-5 -4.859432876e-3 0.9997927144544 -0.019771314176 0.9997927144544 -0.019771314176 -9.609736997e-5 -4.859432876e-3
1.390000000000000 -9.749503746e-5 -4.894632224e-3 0.9997896995627 -0.019914562053 0.9997896995627 -0.019914562053 -9.749503711e-5 -4.894632224e-3
1.400000000000000 -9.890279309e-5 -4.929831261e-3 0.9997866629064 -0.020057809452 0.9997866629064 -0.020057809452 -9.890279275e-5 -4.929831261e-3
1.410000000000000 -1.003206371e-4 -4.965029987e-3 0.9997836044857 -0.020201056367 0.9997836044857 -0.020201056367 -1.003206368e-4 -4.965029987e-3
1.420000000000000 -1.017485695e-4 -5.000228397e-3 0.9997805243006 -0.020344302797 0.9997805243006 -0.020344302797 -1.017485692e-4 -5.000228397e-3
1.430000000000000 -1.031865902e-4 -5.035426492e-3 0.9997774223512 -0.020487548736 0.9997774223512 -0.020487548736 -1.031865899e-4 -5.035426492e-3
1.440000000000000 -1.046346992e-4 -5.070624267e-3 0.9997742986375 -0.020630794182 0.9997742986375 -0.020630794182 -1.046346988e-4 -5.070624267e-3
1.450000000000000 -1.060928963e-4 -5.105821722e-3 0.9997711531598 -0.020774039131 0.9997711531598 -0.020774039131 -1.060928959e-4 -5.105821722e-3
1.460000000000000 -1.075611815e-4 -5.141018853e-3 0.9997679859179 -0.020917283579 0.9997679859179 -0.020917283579 -1.075611811e-4 -5.141018853e-3
1.470000000000000 -1.090395547e-4 -5.176215660e-3 0.9997647969121 -0.021060527524 0.9997647969121 -0.021060527524 -1.090395544e-4 -5.176215660e-3
1.480000000000000 -1.105280159e-4 -5.211412140e-3 0.9997615861425 -0.021203770960 0.9997615861425 -0.021203770960 -1.105280156e-4 -5.211412140e-3
1.490000000000000 -1.120265650e-4 -5.246608290e-3 0.9997583536090 -0.021347013885 0.9997583536090 -0.021347013885 -1.120265647e-4 -5.246608290e-3
1.500000000000000 -1.135352020e-4 -5.281804109e-3 0.9997550993118 -0.021490256295 0.9997550993118 -0.021490256295 -1.135352017e-4 -5.281804109e-3
1.510000000000000 -1.150539268e-4 -5.316999594e-3 0.9997518232510 -0.021633498187 0.9997518232510 -0.021633498187 -1.150539264e-4 -5.316999594e-3
1.520000000000000 -1.165827392e-4 -5.352194744e-3 0.9997485254266 -0.021776739557 0.9997485254266 -0.021776739557 -1.165827389e-4 -5.352194744e-3
1.530000000000000 -1.181216393e-4 -5.387389557e-3 0.9997452058388 -0.021919980401 0.9997452058388 -0.021919980401 -1.181216390e-4 -5.387389557e-3
1.540000000000000 -1.196706270e-4 -5.422584029e-3 0.9997418644876 -0.022063220715 0.9997418644876 -0.022063220715 -1.196706267e-4 -5.422584029e-3
1.550000000000000 -1.212297023e-4 -5.457778160e-3 0.9997385013731 -0.022206460497 0.9997385013731 -0.022206460497 -1.212297019e-4 -5.457778160e-3
1.560000000000000 -1.227988649e-4 -5.492971946e-3 0.9997351164955 -0.022349699743 0.9997351164955 -0.022349699743 -1.227988646e-4 -5.492971946e-3
1.570000000000000 -1.243781150e-4 -5.528165387e-3 0.9997317098547 -0.022492938449 0.9997317098547 -0.022492938449 -1.243781146e-4 -5.528165387e-3
1.580000000000000 -1.259674523e-4 -5.563358479e-3 0.9997282814510 -0.022636176611 0.9997282814510 -0.022636176611 -1.259674520e-4 -5.563358479e-3
1.590000000000000 -1.275668770e-4 -5.598551221e-3 0.9997248312843 -0.022779414227 0.9997248312843 -0.022779414227 -1.275668766e-4 -5.598551221e-3
1.600000000000000 -1.291763888e-4 -5.633743611e-3 0.9997213593548 -0.022922651291 0.9997213593548 -0.022922651291 -1.291763884e-4 -5.633743611e-3
1.610000000000000 -1.307959877e-4 -5.668935646e-3 0.9997178656626 -0.023065887801 0.9997178656626 -0.023065887801 -1.307959873e-4 -5.668935646e-3
1.620000000000000 -1.324256736e-4 -5.704127325e-3 0.9997143502077 -0.023209123754 0.9997143502077 -0.023209123754 -1.324256733e-4 -5.704127325e-3
1.630000000000000 -1.340654466e-4 -5.739318645e-3 0.9997108129903 -0.023352359145 0.9997108129903 -0.023352359145 -1.340654462e-4 -5.739318645e-3
1.640000000000000 -1.357153064e-4 -5.774509604e-3 0.9997072540105 -0.023495593972 0.9997072540105 -0.023495593972 -1.357153060e-4 -5.774509604e-3
1.650000000000000 -1.373752531e-4 -5.809700200e-3 0.9997036732683 -0.023638828229 0.9997036732683 -0.023638828229 -1.373752527e-4 -5.809700200e-3
1.660000000000000 -1.390452865e-4 -5.844890431e-3 0.9997000707639 -0.023782061915 0.9997000707639 -0.023782061915 -1.390452862e-4 -5.844890431e-3
1.670000000000000 -1.407254067e-4 -5.880080295e-3 0.9996964464972 -0.023925295025 0.9996964464972 -0.023925295025 -1.407254063e-4 -5.880080295e-3
1.680000000000000 -1.424156135e-4 -5.915269789e-3 0.9996928004686 -0.024068527556 0.9996928004686 -0.024068527556 -1.424156131e-4 -5.915269789e-3
1.690000000000000 -1.441159068e-4 -5.950458912e-3 0.9996891326780 -0.024211759504 0.9996891326780 -0.024211759504 -1.441159064e-4 -5.950458913e-3
1.700000000000000 -1.458262866e-4 -5.985647662e-3 0.9996854431255 -0.024354990866 0.9996854431255 -0.024354990866 -1.458262863e-4 -5.985647662e-3
1.710000000000000 -1.475467529e-4 -6.020836037e-3 0.9996817318112 -0.024498221637 0.9996817318112 -0.024498221637 -1.475467525e-4 -6.020836037e-3
1.720000000000000 -1.492773055e-4 -6.056024033e-3 0.9996779987353 -0.024641451816 0.9996779987353 -0.024641451816 -1.492773051e-4 -6.056024033e-3
1.730000000000000 -1.510179443e-4 -6.091211650e-3 0.9996742438978 -0.024784681397 0.9996742438978 -0.024784681397 -1.510179440e-4 -6.091211650e-3
1.740000000000000 -1.527686694e-4 -6.126398885e-3 0.9996704672989 -0.024927910377 0.9996704672989 -0.024927910377 -1.527686690e-4 -6.126398885e-3
1.750000000000000 -1.545294806e-4 -6.161585736e-3 0.9996666689369 -0.025071138753 0.9996666689370 -0.025071138753 -1.545294802e-4 -6.161585736e-3
! P1 F=1.75 Eeff=(6.41535 + j0) Z0=(51.2242 + j0)
! P2 F=1.75 Eeff=(6.41535 + j0) Z0=(51.2242 + j0)
1.760000000000000 -1.563003778e-4 -6.196772201e-3 0.9996628488170 -0.025214366522 0.9996628488170 -0.025214366522 -1.563003775e-4 -6.196772201e-3
1.770000000000000 -1.580813611e-4 -6.231958278e-3 0.9996590069343 -0.025357593679 0.9996590069343 -0.025357593679 -1.580813607e-4 -6.231958278e-3
1.780000000000000 -1.598724302e-4 -6.267143964e-3 0.9996551432906 -0.025500820221 0.9996551432906 -0.025500820221 -1.598724299e-4 -6.267143964e-3
1.790000000000000 -1.616735852e-4 -6.302329258e-3 0.9996512578859 -0.025644046144 0.9996512578859 -0.025644046144 -1.616735849e-4 -6.302329258e-3
1.800000000000000 -1.634848260e-4 -6.337514158e-3 0.9996473507203 -0.025787271446 0.9996473507203 -0.025787271446 -1.634848256e-4 -6.337514158e-3
1.810000000000000 -1.653061524e-4 -6.372698660e-3 0.9996434217941 -0.025930496122 0.9996434217941 -0.025930496122 -1.653061521e-4 -6.372698661e-3
1.820000000000000 -1.671375645e-4 -6.407882765e-3 0.9996394711072 -0.026073720168 0.9996394711072 -0.026073720168 -1.671375641e-4 -6.407882765e-3
1.830000000000000 -1.689790621e-4 -6.443066468e-3 0.9996354986597 -0.026216943582 0.9996354986597 -0.026216943582 -1.689790617e-4 -6.443066468e-3
1.840000000000000 -1.708306452e-4 -6.478249768e-3 0.9996315044519 -0.026360166359 0.9996315044519 -0.026360166359 -1.708306448e-4 -6.478249769e-3
1.850000000000000 -1.726923137e-4 -6.513432664e-3 0.9996274884838 -0.026503388496 0.9996274884838 -0.026503388496 -1.726923133e-4 -6.513432664e-3
1.860000000000000 -1.745640675e-4 -6.548615152e-3 0.9996234507555 -0.026646609990 0.9996234507555 -0.026646609990 -1.745640671e-4 -6.548615152e-3
1.870000000000000 -1.764459065e-4 -6.583797231e-3 0.9996193912671 -0.026789830837 0.9996193912671 -0.026789830837 -1.764459061e-4 -6.583797231e-3
1.880000000000000 -1.783378307e-4 -6.618978899e-3 0.9996153100187 -0.026933051033 0.9996153100187 -0.026933051033 -1.783378303e-4 -6.618978899e-3
1.890000000000000 -1.802398400e-4 -6.654160153e-3 0.9996112070105 -0.027076270574 0.9996112070105 -0.027076270574 -1.802398396e-4 -6.654160153e-3
1.900000000000000 -1.821519343e-4 -6.689340992e-3 0.9996070822425 -0.027219489458 0.9996070822425 -0.027219489458 -1.821519339e-4 -6.689340992e-3
1.910000000000000 -1.840741135e-4 -6.724521413e-3 0.9996029357149 -0.027362707681 0.9996029357149 -0.027362707681 -1.840741132e-4 -6.724521413e-3
1.920000000000000 -1.860063776e-4 -6.759701414e-3 0.9995987674277 -0.027505925238 0.9995987674277 -0.027505925238 -1.860063773e-4 -6.759701414e-3
1.930000000000000 -1.879487265e-4 -6.794880993e-3 0.9995945773812 -0.027649142127 0.9995945773812 -0.027649142127 -1.879487261e-4 -6.794880993e-3
1.940000000000000 -1.899011601e-4 -6.830060149e-3 0.9995903655753 -0.027792358344 0.9995903655753 -0.027792358344 -1.899011597e-4 -6.830060149e-3
1.950000000000000 -1.918636783e-4 -6.865238878e-3 0.9995861320103 -0.027935573885 0.9995861320103 -0.027935573885 -1.918636779e-4 -6.865238878e-3
1.960000000000000 -1.938362811e-4 -6.900417179e-3 0.9995818766862 -0.028078788747 0.9995818766862 -0.028078788747 -1.938362807e-4 -6.900417179e-3
1.970000000000000 -1.958189683e-4 -6.935595050e-3 0.9995775996032 -0.028222002926 0.9995775996032 -0.028222002926 -1.958189679e-4 -6.935595050e-3
1.980000000000000 -1.978117400e-4 -6.970772488e-3 0.9995733007614 -0.028365216418 0.9995733007614 -0.028365216418 -1.978117396e-4 -6.970772488e-3
1.990000000000000 -1.998145959e-4 -7.005949492e-3 0.9995689801608 -0.028508429221 0.9995689801608 -0.028508429221 -1.998145955e-4 -7.005949492e-3
2.000000000000000 -2.018275361e-4 -7.041126060e-3 0.9995646378016 -0.028651641330 0.9995646378016 -0.028651641330 -2.018275357e-4 -7.041126060e-3
2.010000000000000 -2.038505604e-4 -7.076302188e-3 0.9995602736840 -0.028794852742 0.9995602736840 -0.028794852742 -2.038505600e-4 -7.076302188e-3
2.020000000000000 -2.058836688e-4 -7.111477876e-3 0.9995558878080 -0.028938063453 0.9995558878080 -0.028938063453 -2.058836684e-4 -7.111477876e-3
2.030000000000000 -2.079268612e-4 -7.146653121e-3 0.9995514801738 -0.029081273460 0.9995514801738 -0.029081273460 -2.079268608e-4 -7.146653121e-3
2.040000000000000 -2.099801375e-4 -7.181827921e-3 0.9995470507815 -0.029224482759 0.9995470507815 -0.029224482759 -2.099801371e-4 -7.181827921e-3
2.050000000000000 -2.120434976e-4 -7.217002274e-3 0.9995425996311 -0.029367691347 0.9995425996311 -0.029367691347 -2.120434972e-4 -7.217002274e-3
2.060000000000000 -2.141169415e-4 -7.252176177e-3 0.9995381267230 -0.029510899219 0.9995381267230 -0.029510899219 -2.141169411e-4 -7.252176177e-3
2.070000000000000 -2.162004690e-4 -7.287349629e-3 0.9995336320570 -0.029654106374 0.9995336320570 -0.029654106374 -2.162004686e-4 -7.287349629e-3
2.080000000000000 -2.182940802e-4 -7.322522628e-3 0.9995291156335 -0.029797312805 0.9995291156335 -0.029797312805 -2.182940798e-4 -7.322522628e-3
2.090000000000000 -2.203977748e-4 -7.357695171e-3 0.9995245774524 -0.029940518512 0.9995245774524 -0.029940518512 -2.203977744e-4 -7.357695171e-3
2.100000000000000 -2.225115529e-4 -7.392867257e-3 0.9995200175140 -0.030083723489 0.9995200175140 -0.030083723489 -2.225115525e-4 -7.392867257e-3
2.110000000000000 -2.246354143e-4 -7.428038882e-3 0.9995154358183 -0.030226927733 0.9995154358183 -0.030226927733 -2.246354139e-4 -7.428038882e-3
2.120000000000000 -2.267693589e-4 -7.463210046e-3 0.9995108323656 -0.030370131240 0.9995108323656 -0.030370131240 -2.267693585e-4 -7.463210046e-3
2.130000000000000 -2.289133867e-4 -7.498380746e-3 0.9995062071558 -0.030513334008 0.9995062071558 -0.030513334008 -2.289133863e-4 -7.498380746e-3
2.140000000000000 -2.310674977e-4 -7.533550980e-3 0.9995015601892 -0.030656536032 0.9995015601892 -0.030656536032 -2.310674973e-4 -7.533550980e-3
2.150000000000000 -2.332316916e-4 -7.568720746e-3 0.9994968914658 -0.030799737309 0.9994968914658 -0.030799737309 -2.332316912e-4 -7.568720746e-3
2.160000000000000 -2.354059684e-4 -7.603890041e-3 0.9994922009858 -0.030942937835 0.9994922009858 -0.030942937835 -2.354059680e-4 -7.603890041e-3
2.170000000000000 -2.375903281e-4 -7.639058864e-3 0.9994874887494 -0.031086137607 0.9994874887494 -0.031086137607 -2.375903277e-4 -7.639058864e-3
2.180000000000000 -2.397847705e-4 -7.674227213e-3 0.9994827547566 -0.031229336621 0.9994827547566 -0.031229336621 -2.397847701e-4 -7.674227213e-3
2.190000000000000 -2.419892956e-4 -7.709395084e-3 0.9994779990075 -0.031372534874 0.9994779990075 -0.031372534874 -2.419892953e-4 -7.709395085e-3
2.200000000000000 -2.442039033e-4 -7.744562478e-3 0.9994732215024 -0.031515732361 0.9994732215024 -0.031515732361 -2.442039029e-4 -7.744562478e-3
2.210000000000000 -2.464285935e-4 -7.779729390e-3 0.9994684222414 -0.031658929080 0.9994684222414 -0.031658929080 -2.464285931e-4 -7.779729390e-3
2.220000000000000 -2.486633661e-4 -7.814895820e-3 0.9994636012245 -0.031802125027 0.9994636012245 -0.031802125027 -2.486633657e-4 -7.814895820e-3
2.230000000000000 -2.509082210e-4 -7.850061764e-3 0.9994587584520 -0.031945320198 0.9994587584520 -0.031945320198 -2.509082206e-4 -7.850061764e-3
2.240000000000000 -2.531631582e-4 -7.885227221e-3 0.9994538939239 -0.032088514590 0.9994538939239 -0.032088514590 -2.531631578e-4 -7.885227222e-3
2.250000000000000 -2.554281775e-4 -7.920392190e-3 0.9994490076404 -0.032231708199 0.9994490076404 -0.032231708199 -2.554281771e-4 -7.920392190e-3
2.260000000000000 -2.577032789e-4 -7.955556666e-3 0.9994440996016 -0.032374901022 0.9994440996016 -0.032374901022 -2.577032785e-4 -7.955556667e-3
2.270000000000000 -2.599884622e-4 -7.990720650e-3 0.9994391698076 -0.032518093054 0.9994391698076 -0.032518093054 -2.599884618e-4 -7.990720650e-3
2.280000000000000 -2.622837274e-4 -8.025884138e-3 0.9994342182587 -0.032661284293 0.9994342182587 -0.032661284293 -2.622837271e-4 -8.025884138e-3
2.290000000000000 -2.645890745e-4 -8.061047128e-3 0.9994292449549 -0.032804474735 0.9994292449549 -0.032804474735 -2.645890741e-4 -8.061047128e-3
2.300000000000000 -2.669045032e-4 -8.096209618e-3 0.9994242498963 -0.032947664376 0.9994242498963 -0.032947664376 -2.669045028e-4 -8.096209618e-3
2.310000000000000 -2.692300136e-4 -8.131371607e-3 0.9994192330832 -0.033090853213 0.9994192330832 -0.033090853213 -2.692300132e-4 -8.131371607e-3
2.320000000000000 -2.715656055e-4 -8.166533092e-3 0.9994141945156 -0.033234041241 0.9994141945156 -0.033234041241 -2.715656051e-4 -8.166533092e-3
2.330000000000000 -2.739112789e-4 -8.201694070e-3 0.9994091341937 -0.033377228459 0.9994091341937 -0.033377228459 -2.739112785e-4 -8.201694070e-3
2.340000000000000 -2.762670336e-4 -8.236854541e-3 0.9994040521176 -0.033520414861 0.9994040521176 -0.033520414861 -2.762670332e-4 -8.236854541e-3
2.350000000000000 -2.786328696e-4 -8.272014501e-3 0.9993989482875 -0.033663600445 0.9993989482875 -0.033663600445 -2.786328692e-4 -8.272014501e-3
2.360000000000000 -2.810087867e-4 -8.307173949e-3 0.9993938227035 -0.033806785207 0.9993938227035 -0.033806785207 -2.810087864e-4 -8.307173949e-3
2.370000000000000 -2.833947850e-4 -8.342332882e-3 0.9993886753658 -0.033949969143 0.9993886753658 -0.033949969143 -2.833947846e-4 -8.342332882e-3
2.380000000000000 -2.857908642e-4 -8.377491299e-3 0.9993835062745 -0.034093152249 0.9993835062745 -0.034093152249 -2.857908639e-4 -8.377491299e-3
2.390000000000000 -2.881970244e-4 -8.412649197e-3 0.9993783154297 -0.034236334523 0.9993783154297 -0.034236334523 -2.881970240e-4 -8.412649197e-3
2.400000000000000 -2.906132653e-4 -8.447806574e-3 0.9993731028316 -0.034379515960 0.9993731028316 -0.034379515960 -2.906132650e-4 -8.447806574e-3
2.410000000000000 -2.930395870e-4 -8.482963429e-3 0.9993678684803 -0.034522696558 0.9993678684803 -0.034522696558 -2.930395867e-4 -8.482963429e-3
2.420000000000000 -2.954759894e-4 -8.518119758e-3 0.9993626123760 -0.034665876311 0.9993626123760 -0.034665876311 -2.954759890e-4 -8.518119758e-3
2.430000000000000 -2.979224722e-4 -8.553275560e-3 0.9993573345189 -0.034809055218 0.9993573345189 -0.034809055218 -2.979224719e-4 -8.553275560e-3
2.440000000000000 -3.003790355e-4 -8.588430833e-3 0.9993520349090 -0.034952233274 0.9993520349090 -0.034952233274 -3.003790352e-4 -8.588430833e-3
2.450000000000000 -3.028456792e-4 -8.623585575e-3 0.9993467135465 -0.035095410475 0.9993467135465 -0.035095410475 -3.028456788e-4 -8.623585575e-3
2.460000000000000 -3.053224031e-4 -8.658739784e-3 0.9993413704316 -0.035238586819 0.9993413704316 -0.035238586819 -3.053224028e-4 -8.658739784e-3
2.470000000000000 -3.078092072e-4 -8.693893456e-3 0.9993360055645 -0.035381762301 0.9993360055645 -0.035381762301 -3.078092069e-4 -8.693893456e-3
2.480000000000000 -3.103060914e-4 -8.729046592e-3 0.9993306189452 -0.035524936918 0.9993306189452 -0.035524936918 -3.103060910e-4 -8.729046592e-3
2.490000000000000 -3.128130555e-4 -8.764199187e-3 0.9993252105739 -0.035668110666 0.9993252105739 -0.035668110666 -3.128130552e-4 -8.764199187e-3
2.500000000000000 -3.153300996e-4 -8.799351241e-3 0.9993197804508 -0.035811283543 0.9993197804508 -0.035811283543 -3.153300992e-4 -8.799351241e-3
2.510000000000000 -3.178572234e-4 -8.834502751e-3 0.9993143285760 -0.035954455543 0.9993143285760 -0.035954455543 -3.178572231e-4 -8.834502751e-3
2.520000000000000 -3.203944269e-4 -8.869653714e-3 0.9993088549497 -0.036097626665 0.9993088549497 -0.036097626665 -3.203944266e-4 -8.869653714e-3
2.530000000000000 -3.229417101e-4 -8.904804130e-3 0.9993033595720 -0.036240796903 0.9993033595720 -0.036240796903 -3.229417097e-4 -8.904804130e-3
2.540000000000000 -3.254990727e-4 -8.939953995e-3 0.9992978424431 -0.036383966255 0.9992978424431 -0.036383966255 -3.254990724e-4 -8.939953995e-3
2.550000000000000 -3.280665147e-4 -8.975103308e-3 0.9992923035632 -0.036527134717 0.9992923035632 -0.036527134717 -3.280665144e-4 -8.975103308e-3
2.560000000000000 -3.306440361e-4 -9.010252067e-3 0.9992867429323 -0.036670302286 0.9992867429323 -0.036670302286 -3.306440358e-4 -9.010252067e-3
2.570000000000000 -3.332316367e-4 -9.045400269e-3 0.9992811605507 -0.036813468957 0.9992811605507 -0.036813468957 -3.332316364e-4 -9.045400269e-3
2.580000000000000 -3.358293164e-4 -9.080547912e-3 0.9992755564185 -0.036956634727 0.9992755564185 -0.036956634727 -3.358293161e-4 -9.080547912e-3
2.590000000000000 -3.384370752e-4 -9.115694994e-3 0.9992699305359 -0.037099799594 0.9992699305359 -0.037099799594 -3.384370748e-4 -9.115694995e-3
2.600000000000000 -3.410549128e-4 -9.150841514e-3 0.9992642829030 -0.037242963552 0.9992642829030 -0.037242963552 -3.410549125e-4 -9.150841514e-3
2.610000000000000 -3.436828293e-4 -9.185987469e-3 0.9992586135200 -0.037386126599 0.9992586135200 -0.037386126599 -3.436828290e-4 -9.185987469e-3
2.620000000000000 -3.463208246e-4 -9.221132856e-3 0.9992529223870 -0.037529288731 0.9992529223870 -0.037529288731 -3.463208243e-4 -9.221132856e-3
2.630000000000000 -3.489688984e-4 -9.256277675e-3 0.9992472095042 -0.037672449944 0.9992472095042 -0.037672449944 -3.489688982e-4 -9.256277675e-3
2.640000000000000 -3.516270509e-4 -9.291421922e-3 0.9992414748718 -0.037815610235 0.9992414748718 -0.037815610235 -3.516270506e-4 -9.291421922e-3
2.650000000000000 -3.542952817e-4 -9.326565596e-3 0.9992357184899 -0.037958769600 0.9992357184899 -0.037958769600 -3.542952814e-4 -9.326565596e-3
2.660000000000000 -3.569735909e-4 -9.361708694e-3 0.9992299403587 -0.038101928036 0.9992299403587 -0.038101928036 -3.569735906e-4 -9.361708694e-3
2.670000000000000 -3.596619784e-4 -9.396851215e-3 0.9992241404783 -0.038245085540 0.9992241404783 -0.038245085540 -3.596619781e-4 -9.396851215e-3
2.680000000000000 -3.623604439e-4 -9.431993156e-3 0.9992183188489 -0.038388242106 0.9992183188489 -0.038388242106 -3.623604437e-4 -9.431993156e-3
2.690000000000000 -3.650689876e-4 -9.467134515e-3 0.9992124754707 -0.038531397733 0.9992124754707 -0.038531397733 -3.650689873e-4 -9.467134515e-3
2.700000000000000 -3.677876092e-4 -9.502275290e-3 0.9992066103439 -0.038674552416 0.9992066103439 -0.038674552416 -3.677876089e-4 -9.502275290e-3
2.710000000000000 -3.705163086e-4 -9.537415479e-3 0.9992007234685 -0.038817706152 0.9992007234685 -0.038817706152 -3.705163083e-4 -9.537415479e-3
2.720000000000000 -3.732550857e-4 -9.572555081e-3 0.9991948148449 -0.038960858937 0.9991948148449 -0.038960858937 -3.732550855e-4 -9.572555081e-3
2.730000000000000 -3.760039405e-4 -9.607694091e-3 0.9991888844730 -0.039104010768 0.9991888844730 -0.039104010768 -3.760039403e-4 -9.607694092e-3
2.740000000000000 -3.787628729e-4 -9.642832510e-3 0.9991829323532 -0.039247161642 0.9991829323532 -0.039247161642 -3.787628727e-4 -9.642832510e-3
2.750000000000000 -3.815318827e-4 -9.677970334e-3 0.9991769584855 -0.039390311553 0.9991769584855 -0.039390311553 -3.815318825e-4 -9.677970334e-3
2.760000000000000 -3.843109698e-4 -9.713107562e-3 0.9991709628702 -0.039533460500 0.9991709628702 -0.039533460500 -3.843109696e-4 -9.713107562e-3
2.770000000000000 -3.871001342e-4 -9.748244191e-3 0.9991649455074 -0.039676608478 0.9991649455074 -0.039676608478 -3.871001340e-4 -9.748244191e-3
2.780000000000000 -3.898993757e-4 -9.783380219e-3 0.9991589063972 -0.039819755484 0.9991589063972 -0.039819755484 -3.898993755e-4 -9.783380219e-3
2.790000000000000 -3.927086942e-4 -9.818515645e-3 0.9991528455399 -0.039962901514 0.9991528455399 -0.039962901514 -3.927086940e-4 -9.818515645e-3
2.800000000000000 -3.955280897e-4 -9.853650465e-3 0.9991467629357 -0.040106046565 0.9991467629357 -0.040106046565 -3.955280895e-4 -9.853650465e-3
2.810000000000000 -3.983575619e-4 -9.888784679e-3 0.9991406585846 -0.040249190633 0.9991406585846 -0.040249190633 -3.983575618e-4 -9.888784679e-3
2.820000000000000 -4.011971110e-4 -9.923918283e-3 0.9991345324869 -0.040392333715 0.9991345324869 -0.040392333715 -4.011971108e-4 -9.923918283e-3
2.830000000000000 -4.040467366e-4 -9.959051276e-3 0.9991283846427 -0.040535475806 0.9991283846427 -0.040535475806 -4.040467364e-4 -9.959051276e-3
2.840000000000000 -4.069064387e-4 -9.994183656e-3 0.9991222150522 -0.040678616904 0.9991222150522 -0.040678616904 -4.069064386e-4 -9.994183656e-3
2.850000000000000 -4.097762173e-4 -0.010029315420 0.9991160237156 -0.040821757005 0.9991160237156 -0.040821757005 -4.097762171e-4 -0.010029315420
2.860000000000000 -4.126560721e-4 -0.010064446567 0.9991098106331 -0.040964896105 0.9991098106331 -0.040964896105 -4.126560720e-4 -0.010064446567
2.870000000000000 -4.155460032e-4 -0.010099577094 0.9991035758048 -0.041108034201 0.9991035758048 -0.041108034201 -4.155460031e-4 -0.010099577094
2.880000000000000 -4.184460103e-4 -0.010134706999 0.9990973192309 -0.041251171289 0.9990973192309 -0.041251171289 -4.184460102e-4 -0.010134706999
2.890000000000000 -4.213560935e-4 -0.010169836280 0.9990910409116 -0.041394307366 0.9990910409116 -0.041394307366 -4.213560934e-4 -0.010169836280
2.900000000000000 -4.242762525e-4 -0.010204964936 0.9990847408471 -0.041537442427 0.9990847408471 -0.041537442427 -4.242762524e-4 -0.010204964936
2.910000000000000 -4.272064873e-4 -0.010240092963 0.9990784190376 -0.041680576470 0.9990784190376 -0.041680576470 -4.272064872e-4 -0.010240092963
2.920000000000000 -4.301467978e-4 -0.010275220360 0.9990720754831 -0.041823709491 0.9990720754831 -0.041823709491 -4.301467977e-4 -0.010275220360
2.930000000000000 -4.330971838e-4 -0.010310347125 0.9990657101839 -0.041966841486 0.9990657101839 -0.041966841486 -4.330971838e-4 -0.010310347125
2.940000000000000 -4.360576453e-4 -0.010345473255 0.9990593231403 -0.042109972452 0.9990593231403 -0.042109972452 -4.360576453e-4 -0.010345473255
2.950000000000000 -4.390281822e-4 -0.010380598749 0.9990529143523 -0.042253102385 0.9990529143523 -0.042253102385 -4.390281821e-4 -0.010380598749
2.960000000000000 -4.420087943e-4 -0.010415723605 0.9990464838201 -0.042396231282 0.9990464838201 -0.042396231282 -4.420087943e-4 -0.010415723605
2.970000000000000 -4.449994815e-4 -0.010450847819 0.9990400315440 -0.042539359139 0.9990400315440 -0.042539359139 -4.449994815e-4 -0.010450847819
2.980000000000000 -4.480002438e-4 -0.010485971391 0.9990335575241 -0.042682485952 0.9990335575241 -0.042682485952 -4.480002438e-4 -0.010485971391
2.990000000000000 -4.510110810e-4 -0.010521094318 0.9990270617606 -0.042825611718 0.9990270617606 -0.042825611718 -4.510110810e-4 -0.010521094318
3.000000000000000 -4.540319930e-4 -0.010556216598 0.9990205442510 -0.042968736433 0.9990205442509 -0.042968736433 -4.540319930e-4 -0.010556216598
! P1 F=3.0 Eeff=(6.41536 + j0) Z0=(51.2242 + j0)
! P2 F=3.0 Eeff=(6.41536 + j0) Z0=(51.2242 + j0)
