! Sonnet Data File
! From: emclient Version : 17.56
! From Project: 50Ohm_long_with_bridge_and_stub
! Data is De-embedded 
! Data File Written: 12/13/2022 11:34:37
!< HDATE 12/12/2022 13:33:16
!< MDATE 12/12/2022 13:33:16
# GHZ S RI R 50.00000
0.500000000000000 -1.452256332e-4 -6.886197747e-3 0.9997676114965 -0.020427486196 0.9997676114969 -0.020427486196 -1.361789567e-4 -6.886382591e-3
! P1 F=0.5 Eeff=(6.38306 + j0) Z0=(51.3541 + j0)
! P2 F=0.5 Eeff=(6.38306 + j0) Z0=(51.3541 + j0)
0.510000000000000 -1.510919446e-4 -7.023857873e-3 0.9997582233532 -0.020835951167 0.9997582233532 -0.020835951167 -1.416798689e-4 -7.024053983e-3
0.520000000000000 -1.570743992e-4 -7.161513948e-3 0.9997486493761 -0.021244411378 0.9997486493761 -0.021244411378 -1.472896957e-4 -7.161721769e-3
0.530000000000000 -1.631729941e-4 -7.299165888e-3 0.9997388895677 -0.021652866726 0.9997388895677 -0.021652866726 -1.530084343e-4 -7.299385886e-3
0.540000000000000 -1.693877262e-4 -7.436813615e-3 0.9997289439306 -0.022061317119 0.9997289439306 -0.022061317119 -1.588360818e-4 -7.437046263e-3
0.550000000000000 -1.757185923e-4 -7.574457050e-3 0.9997188124669 -0.022469762460 0.9997188124669 -0.022469762460 -1.647726355e-4 -7.574702831e-3
0.560000000000000 -1.821655889e-4 -7.712096116e-3 0.9997084951792 -0.022878202656 0.9997084951792 -0.022878202656 -1.708180925e-4 -7.712355521e-3
0.570000000000000 -1.887287130e-4 -7.849730733e-3 0.9996979920700 -0.023286637612 0.9996979920700 -0.023286637612 -1.769724498e-4 -7.850004262e-3
0.580000000000000 -1.954079609e-4 -7.987360824e-3 0.9996873031418 -0.023695067232 0.9996873031418 -0.023695067232 -1.832357045e-4 -7.987648986e-3
0.590000000000000 -2.022033294e-4 -8.124986310e-3 0.9996764283973 -0.024103491424 0.9996764283973 -0.024103491424 -1.896078537e-4 -8.125289622e-3
0.600000000000000 -2.091148150e-4 -8.262607112e-3 0.9996653678391 -0.024511910091 0.9996653678391 -0.024511910091 -1.960888942e-4 -8.262926102e-3
0.610000000000000 -2.161424141e-4 -8.400223153e-3 0.9996541214699 -0.024920323140 0.9996541214699 -0.024920323140 -2.026788231e-4 -8.400558354e-3
0.620000000000000 -2.232861231e-4 -8.537834353e-3 0.9996426892926 -0.025328730476 0.9996426892926 -0.025328730476 -2.093776372e-4 -8.538186311e-3
0.630000000000000 -2.305459386e-4 -8.675440636e-3 0.9996310713100 -0.025737132003 0.9996310713100 -0.025737132003 -2.161853334e-4 -8.675809901e-3
0.640000000000000 -2.379218568e-4 -8.813041921e-3 0.9996192675249 -0.026145527629 0.9996192675249 -0.026145527629 -2.231019085e-4 -8.813429056e-3
0.650000000000000 -2.454138739e-4 -8.950638131e-3 0.9996072779405 -0.026553917257 0.9996072779405 -0.026553917257 -2.301273592e-4 -8.951043707e-3
0.660000000000000 -2.530219864e-4 -9.088229188e-3 0.9995951025596 -0.026962300793 0.9995951025596 -0.026962300793 -2.372616823e-4 -9.088653782e-3
0.670000000000000 -2.607461903e-4 -9.225815013e-3 0.9995827413853 -0.027370678143 0.9995827413853 -0.027370678143 -2.445048745e-4 -9.226259214e-3
0.680000000000000 -2.685864818e-4 -9.363395528e-3 0.9995701944209 -0.027779049212 0.9995701944209 -0.027779049212 -2.518569325e-4 -9.363859931e-3
0.690000000000000 -2.765428571e-4 -9.500970655e-3 0.9995574616694 -0.028187413906 0.9995574616694 -0.028187413906 -2.593178528e-4 -9.501455866e-3
0.700000000000000 -2.846153122e-4 -9.638540314e-3 0.9995445431342 -0.028595772130 0.9995445431342 -0.028595772130 -2.668876320e-4 -9.639046947e-3
0.710000000000000 -2.928038431e-4 -9.776104429e-3 0.9995314388185 -0.029004123789 0.9995314388185 -0.029004123789 -2.745662668e-4 -9.776633106e-3
0.720000000000000 -3.011084458e-4 -9.913662920e-3 0.9995181487258 -0.029412468788 0.9995181487258 -0.029412468788 -2.823537535e-4 -9.914214273e-3
0.730000000000000 -3.095291161e-4 -0.010051215710 0.9995046728594 -0.029820807034 0.9995046728594 -0.029820807034 -2.902500886e-4 -0.010051790379
0.740000000000000 -3.180658501e-4 -0.010188762719 0.9994910112228 -0.030229138432 0.9994910112228 -0.030229138432 -2.982552686e-4 -0.010189361353
0.750000000000000 -3.267186435e-4 -0.010326303870 0.9994771638197 -0.030637462886 0.9994771638197 -0.030637462886 -3.063692898e-4 -0.010326927127
0.760000000000000 -3.354874921e-4 -0.010463839084 0.9994631306535 -0.031045780303 0.9994631306535 -0.031045780303 -3.145921485e-4 -0.010464487631
0.770000000000000 -3.443723916e-4 -0.010601368283 0.9994489117279 -0.031454090587 0.9994489117279 -0.031454090587 -3.229238411e-4 -0.010602042795
0.780000000000000 -3.533733377e-4 -0.010738891389 0.9994345070467 -0.031862393645 0.9994345070467 -0.031862393645 -3.313643639e-4 -0.010739592550
0.790000000000000 -3.624903261e-4 -0.010876408324 0.9994199166136 -0.032270689381 0.9994199166136 -0.032270689381 -3.399137130e-4 -0.010877136826
0.800000000000000 -3.717233523e-4 -0.011013919008 0.9994051404325 -0.032678977702 0.9994051404325 -0.032678977702 -3.485718846e-4 -0.011014675554
0.810000000000000 -3.810724119e-4 -0.011151423365 0.9993901785072 -0.033087258512 0.9993901785072 -0.033087258512 -3.573388749e-4 -0.011152208664
0.820000000000000 -3.905375005e-4 -0.011288921314 0.9993750308418 -0.033495531717 0.9993750308418 -0.033495531717 -3.662146800e-4 -0.011289736087
0.830000000000000 -4.001186134e-4 -0.011426412779 0.9993596974401 -0.033903797222 0.9993596974401 -0.033903797222 -3.751992959e-4 -0.011427257753
0.840000000000000 -4.098157460e-4 -0.011563897681 0.9993441783063 -0.034312054934 0.9993441783063 -0.034312054934 -3.842927187e-4 -0.011564773593
0.850000000000000 -4.196288938e-4 -0.011701375942 0.9993284734445 -0.034720304756 0.9993284734445 -0.034720304756 -3.934949443e-4 -0.011702283537
0.860000000000000 -4.295580520e-4 -0.011838847483 0.9993125828589 -0.035128546595 0.9993125828589 -0.035128546595 -4.028059687e-4 -0.011839787516
0.870000000000000 -4.396032159e-4 -0.011976312226 0.9992965065536 -0.035536780357 0.9992965065536 -0.035536780357 -4.122257879e-4 -0.011977285460
0.880000000000000 -4.497643808e-4 -0.012113770094 0.9992802445331 -0.035945005945 0.9992802445331 -0.035945005945 -4.217543975e-4 -0.012114777300
0.890000000000000 -4.600415417e-4 -0.012251221006 0.9992637968017 -0.036353223267 0.9992637968017 -0.036353223267 -4.313917936e-4 -0.012252262966
0.900000000000000 -4.704346939e-4 -0.012388664886 0.9992471633637 -0.036761432228 0.9992471633637 -0.036761432228 -4.411379719e-4 -0.012389742389
0.910000000000000 -4.809438324e-4 -0.012526101655 0.9992303442236 -0.037169632733 0.9992303442236 -0.037169632733 -4.509929281e-4 -0.012527215500
0.920000000000000 -4.915689522e-4 -0.012663531235 0.9992133393860 -0.037577824686 0.9992133393860 -0.037577824686 -4.609566579e-4 -0.012664682228
0.930000000000000 -5.023100484e-4 -0.012800953548 0.9991961488555 -0.037986007995 0.9991961488555 -0.037986007995 -4.710291570e-4 -0.012802142505
0.940000000000000 -5.131671158e-4 -0.012938368514 0.9991787726367 -0.038394182565 0.9991787726367 -0.038394182565 -4.812104211e-4 -0.012939596261
0.950000000000000 -5.241401494e-4 -0.013075776057 0.9991612107342 -0.038802348300 0.9991612107342 -0.038802348300 -4.915004457e-4 -0.013077043427
0.960000000000000 -5.352291439e-4 -0.013213176098 0.9991434631529 -0.039210505106 0.9991434631529 -0.039210505106 -5.018992264e-4 -0.013214483932
0.970000000000000 -5.464340943e-4 -0.013350568558 0.9991255298976 -0.039618652890 0.9991255298976 -0.039618652890 -5.124067587e-4 -0.013351917709
0.980000000000000 -5.577549952e-4 -0.013487953360 0.9991074109731 -0.040026791555 0.9991074109731 -0.040026791555 -5.230230380e-4 -0.013489344686
0.990000000000000 -5.691918414e-4 -0.013625330425 0.9990891063844 -0.040434921008 0.9990891063844 -0.040434921008 -5.337480599e-4 -0.013626764796
1.000000000000000 -5.807446275e-4 -0.013762699675 0.9990706161365 -0.040843041155 0.9990706161365 -0.040843041155 -5.445818197e-4 -0.013764177967
1.010000000000000 -5.924133482e-4 -0.013900061031 0.9990519402344 -0.041251151901 0.9990519402344 -0.041251151901 -5.555243127e-4 -0.013901584132
1.020000000000000 -6.041979979e-4 -0.014037414416 0.9990330786832 -0.041659253150 0.9990330786832 -0.041659253150 -5.665755343e-4 -0.014038983221
1.030000000000000 -6.160985703e-4 -0.014174759744 0.9990140314877 -0.042067344803 0.9990140314884 -0.042067344803 -5.777354805e-4 -0.014176375170
! P1 F=1.03 Eeff=(6.38301 + j0) Z0=(51.3538 + j0)
! P2 F=1.03 Eeff=(6.38301 + j0) Z0=(51.3538 + j0)
1.040000000000000 -6.281150627e-4 -0.014312096959 0.9989947986543 -0.042475426784 0.9989947986543 -0.042475426784 -5.890041442e-4 -0.014313759891
1.050000000000000 -6.402474666e-4 -0.014449425960 0.9989753801870 -0.042883498980 0.9989753801870 -0.042883498980 -6.003815230e-4 -0.014451137333
1.060000000000000 -6.524957775e-4 -0.014586746676 0.9989557760917 -0.043291561302 0.9989557760917 -0.043291561302 -6.118676113e-4 -0.014588507422
1.070000000000000 -6.648599895e-4 -0.014724059031 0.9989359863738 -0.043699613655 0.9989359863738 -0.043699613655 -6.234624041e-4 -0.014725870087
1.080000000000000 -6.773400971e-4 -0.014861362944 0.9989160110386 -0.044107655946 0.9989160110386 -0.044107655946 -6.351658965e-4 -0.014863225259
1.090000000000000 -6.899360944e-4 -0.014998658339 0.9988958500916 -0.044515688080 0.9988958500916 -0.044515688080 -6.469780837e-4 -0.015000572870
1.100000000000000 -7.026479756e-4 -0.015135945136 0.9988755035386 -0.044923709962 0.9988755035386 -0.044923709962 -6.588989605e-4 -0.015137912848
1.110000000000000 -7.154757349e-4 -0.015273223258 0.9988549713850 -0.045331721498 0.9988549713850 -0.045331721498 -6.709285220e-4 -0.015275245126
1.120000000000000 -7.284193664e-4 -0.015410492627 0.9988342536365 -0.045739722594 0.9988342536365 -0.045739722594 -6.830667631e-4 -0.015412569633
1.130000000000000 -7.414788641e-4 -0.015547753164 0.9988133502990 -0.046147713154 0.9988133502990 -0.046147713154 -6.953136786e-4 -0.015549886301
1.140000000000000 -7.546542221e-4 -0.015685004791 0.9987922613782 -0.046555693085 0.9987922613782 -0.046555693085 -7.076692634e-4 -0.015687195060
1.150000000000000 -7.679454342e-4 -0.015822247430 0.9987709868799 -0.046963662292 0.9987709868799 -0.046963662292 -7.201335124e-4 -0.015824495840
1.160000000000000 -7.813524944e-4 -0.015959481003 0.9987495268101 -0.047371620681 0.9987495268101 -0.047371620681 -7.327064202e-4 -0.015961788573
1.170000000000000 -7.948753966e-4 -0.016096705432 0.9987278811748 -0.047779568157 0.9987278811748 -0.047779568157 -7.453879816e-4 -0.016099073188
1.180000000000000 -8.085141346e-4 -0.016233920638 0.9987060499799 -0.048187504625 0.9987060499799 -0.048187504625 -7.581781914e-4 -0.016236349617
1.190000000000000 -8.222687021e-4 -0.016371126543 0.9986840332317 -0.048595429992 0.9986840332317 -0.048595429992 -7.710770440e-4 -0.016373617791
1.200000000000000 -8.361390929e-4 -0.016508323070 0.9986618309361 -0.049003344163 0.9986618309361 -0.049003344163 -7.840845343e-4 -0.016510877639
1.210000000000000 -8.501253006e-4 -0.016645510140 0.9986394430994 -0.049411247043 0.9986394430994 -0.049411247043 -7.972006566e-4 -0.016648129092
1.220000000000000 -8.642273189e-4 -0.016782687675 0.9986168697280 -0.049819138539 0.9986168697280 -0.049819138539 -8.104254056e-4 -0.016785372083
1.230000000000000 -8.784451414e-4 -0.016919855597 0.9985941108280 -0.050227018554 0.9985941108280 -0.050227018554 -8.237587758e-4 -0.016922606540
1.240000000000000 -8.927787616e-4 -0.017057013827 0.9985711664059 -0.050634886996 0.9985711664059 -0.050634886996 -8.372007616e-4 -0.017059832394
1.250000000000000 -9.072281730e-4 -0.017194162288 0.9985480364682 -0.051042743770 0.9985480364682 -0.051042743770 -8.507513574e-4 -0.017197049577
1.260000000000000 -9.217933690e-4 -0.017331300901 0.9985247210212 -0.051450588781 0.9985247210212 -0.051450588781 -8.644105576e-4 -0.017334258019
1.270000000000000 -9.364743430e-4 -0.017468429589 0.9985012200716 -0.051858421936 0.9985012200716 -0.051858421936 -8.781783565e-4 -0.017471457651
1.280000000000000 -9.512710884e-4 -0.017605548273 0.9984775336260 -0.052266243138 0.9984775336260 -0.052266243138 -8.920547485e-4 -0.017608648403
1.290000000000000 -9.661835985e-4 -0.017742656875 0.9984536616910 -0.052674052295 0.9984536616910 -0.052674052295 -9.060397277e-4 -0.017745830206
1.300000000000000 -9.812118666e-4 -0.017879755317 0.9984296042734 -0.053081849312 0.9984296042734 -0.053081849312 -9.201332884e-4 -0.017883002991
1.310000000000000 -9.963558857e-4 -0.018016843521 0.9984053613799 -0.053489634094 0.9984053613799 -0.053489634094 -9.343354249e-4 -0.018020166689
1.320000000000000 -1.011615649e-3 -0.018153921409 0.9983809330175 -0.053897406547 0.9983809330175 -0.053897406547 -9.486461311e-4 -0.018157321230
1.330000000000000 -1.026991150e-3 -0.018290988902 0.9983563191928 -0.054305166577 0.9983563191928 -0.054305166577 -9.630654013e-4 -0.018294466545
1.340000000000000 -1.042482382e-3 -0.018428045923 0.9983315199131 -0.054712914089 0.9983315199131 -0.054712914089 -9.775932295e-4 -0.018431602565
1.350000000000000 -1.058089337e-3 -0.018565092394 0.9983065351851 -0.055120648989 0.9983065351851 -0.055120648989 -9.922296097e-4 -0.018568729220
1.360000000000000 -1.073812008e-3 -0.018702128236 0.9982813650161 -0.055528371183 0.9982813650161 -0.055528371183 -1.006974536e-3 -0.018705846441
1.370000000000000 -1.089650389e-3 -0.018839153371 0.9982560094132 -0.055936080575 0.9982560094132 -0.055936080575 -1.021828002e-3 -0.018842954160
1.380000000000000 -1.105604472e-3 -0.018976167722 0.9982304683834 -0.056343777073 0.9982304683834 -0.056343777073 -1.036790002e-3 -0.018980052306
1.390000000000000 -1.121674250e-3 -0.019113171210 0.9982047419342 -0.056751460581 0.9982047419342 -0.056751460581 -1.051860530e-3 -0.019117140811
1.400000000000000 -1.137859717e-3 -0.019250163758 0.9981788300727 -0.057159131006 0.9981788300727 -0.057159131006 -1.067039579e-3 -0.019254219604
1.410000000000000 -1.154160864e-3 -0.019387145286 0.9981527328064 -0.057566788252 0.9981527328064 -0.057566788252 -1.082327143e-3 -0.019391288618
1.420000000000000 -1.170577684e-3 -0.019524115718 0.9981264501427 -0.057974432226 0.9981264501427 -0.057974432226 -1.097723217e-3 -0.019528347783
1.430000000000000 -1.187110170e-3 -0.019661074975 0.9980999820889 -0.058382062833 0.9980999820889 -0.058382062833 -1.113227794e-3 -0.019665397029
1.440000000000000 -1.203758315e-3 -0.019798022978 0.9980733286528 -0.058789679979 0.9980733286528 -0.058789679979 -1.128840866e-3 -0.019802436288
1.450000000000000 -1.220522112e-3 -0.019934959651 0.9980464898417 -0.059197283569 0.9980464898417 -0.059197283569 -1.144562429e-3 -0.019939465490
1.460000000000000 -1.237401551e-3 -0.020071884914 0.9980194656635 -0.059604873510 0.9980194656635 -0.059604873510 -1.160392476e-3 -0.020076484565
1.470000000000000 -1.254396627e-3 -0.020208798691 0.9979922561258 -0.060012449707 0.9979922561258 -0.060012449707 -1.176331000e-3 -0.020213493446
1.480000000000000 -1.271507332e-3 -0.020345700902 0.9979648612364 -0.060420012065 0.9979648612364 -0.060420012065 -1.192377995e-3 -0.020350492062
1.490000000000000 -1.288733658e-3 -0.020482591471 0.9979372810030 -0.060827560491 0.9979372810030 -0.060827560491 -1.208533453e-3 -0.020487480344
1.500000000000000 -1.306075596e-3 -0.020619470318 0.9979095154337 -0.061235094890 0.9979095154337 -0.061235094890 -1.224797370e-3 -0.020624458223
1.510000000000000 -1.323533141e-3 -0.020756337366 0.9978815645362 -0.061642615168 0.9978815645362 -0.061642615168 -1.241169738e-3 -0.020761425630
1.520000000000000 -1.341106283e-3 -0.020893192537 0.9978534283186 -0.062050121230 0.9978534283186 -0.062050121230 -1.257650550e-3 -0.020898382496
1.530000000000000 -1.358795015e-3 -0.021030035753 0.9978251067890 -0.062457612983 0.9978251067890 -0.062457612983 -1.274239799e-3 -0.021035328751
1.540000000000000 -1.376599329e-3 -0.021166866935 0.9977965999555 -0.062865090331 0.9977965999555 -0.062865090331 -1.290937480e-3 -0.021172264327
1.550000000000000 -1.394519217e-3 -0.021303686007 0.9977679078262 -0.063272553182 0.9977679078262 -0.063272553182 -1.307743585e-3 -0.021309189154
1.560000000000000 -1.412554672e-3 -0.021440492889 0.9977390304093 -0.063680001439 0.9977390304093 -0.063680001439 -1.324658108e-3 -0.021446103163
1.570000000000000 -1.430705685e-3 -0.021577287505 0.9977099677131 -0.064087435011 0.9977099677131 -0.064087435011 -1.341681041e-3 -0.021583006285
1.580000000000000 -1.448972248e-3 -0.021714069775 0.9976807197461 -0.064494853801 0.9976807197461 -0.064494853801 -1.358812378e-3 -0.021719898451
1.590000000000000 -1.467354353e-3 -0.021850839622 0.9976512865165 -0.064902257716 0.9976512865165 -0.064902257716 -1.376052112e-3 -0.021856779591
1.600000000000000 -1.485851992e-3 -0.021987596968 0.9976216680328 -0.065309646661 0.9976216680328 -0.065309646661 -1.393400235e-3 -0.021993649637
1.610000000000000 -1.504465157e-3 -0.022124341736 0.9975918643036 -0.065717020543 0.9975918643036 -0.065717020543 -1.410856742e-3 -0.022130508519
1.620000000000000 -1.523193839e-3 -0.022261073846 0.9975618753374 -0.066124379267 0.9975618753374 -0.066124379267 -1.428421624e-3 -0.022267356168
1.630000000000000 -1.542038030e-3 -0.022397793222 0.9975317011428 -0.066531722739 0.9975317011428 -0.066531722739 -1.446094875e-3 -0.022404192515
1.640000000000000 -1.560997723e-3 -0.022534499784 0.9975013417285 -0.066939050865 0.9975013417285 -0.066939050865 -1.463876488e-3 -0.022541017491
1.650000000000000 -1.580072907e-3 -0.022671193456 0.9974707971033 -0.067346363550 0.9974707971033 -0.067346363550 -1.481766455e-3 -0.022677831026
1.660000000000000 -1.599263576e-3 -0.022807874160 0.9974400672760 -0.067753660701 0.9974400672760 -0.067753660701 -1.499764770e-3 -0.022814633052
1.670000000000000 -1.618569721e-3 -0.022944541816 0.9974091522554 -0.068160942222 0.9974091522554 -0.068160942222 -1.517871425e-3 -0.022951423500
1.680000000000000 -1.637991333e-3 -0.023081196349 0.9973780520504 -0.068568208021 0.9973780520504 -0.068568208021 -1.536086413e-3 -0.023088202300
1.690000000000000 -1.657528403e-3 -0.023217837678 0.9973467666700 -0.068975458002 0.9973467666700 -0.068975458002 -1.554409726e-3 -0.023224969384
1.700000000000000 -1.677180923e-3 -0.023354465728 0.9973152961233 -0.069382692072 0.9973152961233 -0.069382692072 -1.572841357e-3 -0.023361724681
1.710000000000000 -1.696948884e-3 -0.023491080419 0.9972836404193 -0.069789910137 0.9972836404193 -0.069789910137 -1.591381299e-3 -0.023498468124
1.720000000000000 -1.716832278e-3 -0.023627681674 0.9972517995672 -0.070197112102 0.9972517995672 -0.070197112102 -1.610029545e-3 -0.023635199643
1.730000000000000 -1.736831096e-3 -0.023764269414 0.9972197735762 -0.070604297873 0.9972197735762 -0.070604297873 -1.628786086e-3 -0.023771919168
1.740000000000000 -1.756945329e-3 -0.023900843563 0.9971875624555 -0.071011467356 0.9971875624555 -0.071011467356 -1.647650916e-3 -0.023908626631
1.750000000000000 -1.777174967e-3 -0.024037404042 0.9971551662142 -0.071418620457 0.9971551662146 -0.071418620457 -1.666624028e-3 -0.024045321963
! P1 F=1.75 Eeff=(6.383 + j0) Z0=(51.3538 + j0)
! P2 F=1.75 Eeff=(6.383 + j0) Z0=(51.3538 + j0)
1.760000000000000 -1.797520004e-3 -0.024173950773 0.9971225848625 -0.071825757082 0.9971225848625 -0.071825757082 -1.685705411e-3 -0.024182005095
1.770000000000000 -1.817980429e-3 -0.024310483679 0.9970898184089 -0.072232877136 0.9970898184089 -0.072232877136 -1.704895061e-3 -0.024318675957
1.780000000000000 -1.838556233e-3 -0.024447002681 0.9970568668634 -0.072639980526 0.9970568668634 -0.072639980526 -1.724192969e-3 -0.024455334481
1.790000000000000 -1.859247407e-3 -0.024583507702 0.9970237302353 -0.073047067157 0.9970237302353 -0.073047067157 -1.743599127e-3 -0.024591980598
1.800000000000000 -1.880053943e-3 -0.024719998664 0.9969904085344 -0.073454136936 0.9969904085344 -0.073454136936 -1.763113528e-3 -0.024728614237
1.810000000000000 -1.900975831e-3 -0.024856475488 0.9969569017702 -0.073861189768 0.9969569017702 -0.073861189768 -1.782736163e-3 -0.024865235331
1.820000000000000 -1.922013061e-3 -0.024992938098 0.9969232099525 -0.074268225559 0.9969232099525 -0.074268225559 -1.802467026e-3 -0.025001843810
1.830000000000000 -1.943165626e-3 -0.025129386414 0.9968893330912 -0.074675244215 0.9968893330912 -0.074675244215 -1.822306108e-3 -0.025138439606
1.840000000000000 -1.964433515e-3 -0.025265820360 0.9968552711959 -0.075082245642 0.9968552711959 -0.075082245642 -1.842253401e-3 -0.025275022649
1.850000000000000 -1.985816719e-3 -0.025402239858 0.9968210242766 -0.075489229746 0.9968210242766 -0.075489229746 -1.862308897e-3 -0.025411592870
1.860000000000000 -2.007315229e-3 -0.025538644830 0.9967865923433 -0.075896196433 0.9967865923433 -0.075896196433 -1.882472589e-3 -0.025548150200
1.870000000000000 -2.028929036e-3 -0.025675035197 0.9967519754060 -0.076303145609 0.9967519754060 -0.076303145609 -1.902744468e-3 -0.025684694570
1.880000000000000 -2.050658129e-3 -0.025811410882 0.9967171734746 -0.076710077179 0.9967171734746 -0.076710077179 -1.923124526e-3 -0.025821225911
1.890000000000000 -2.072502500e-3 -0.025947771808 0.9966821865595 -0.077116991050 0.9966821865595 -0.077116991050 -1.943612756e-3 -0.025957744154
1.900000000000000 -2.094462139e-3 -0.026084117896 0.9966470146707 -0.077523887128 0.9966470146707 -0.077523887128 -1.964209149e-3 -0.026094249231
1.910000000000000 -2.116537037e-3 -0.026220449069 0.9966116578184 -0.077930765319 0.9966116578184 -0.077930765319 -1.984913696e-3 -0.026230741071
1.920000000000000 -2.138727183e-3 -0.026356765248 0.9965761160131 -0.078337625528 0.9965761160131 -0.078337625528 -2.005726391e-3 -0.026367219606
1.930000000000000 -2.161032568e-3 -0.026493066357 0.9965403892649 -0.078744467662 0.9965403892649 -0.078744467662 -2.026647224e-3 -0.026503684768
1.940000000000000 -2.183453182e-3 -0.026629352317 0.9965044775844 -0.079151291626 0.9965044775844 -0.079151291626 -2.047676187e-3 -0.026640136486
1.950000000000000 -2.205989016e-3 -0.026765623050 0.9964683809820 -0.079558097328 0.9964683809820 -0.079558097328 -2.068813272e-3 -0.026776574693
1.960000000000000 -2.228640060e-3 -0.026901878479 0.9964320994682 -0.079964884671 0.9964320994682 -0.079964884671 -2.090058470e-3 -0.026912999318
1.970000000000000 -2.251406303e-3 -0.027038118526 0.9963956330537 -0.080371653564 0.9963956330537 -0.080371653564 -2.111411774e-3 -0.027049410294
1.980000000000000 -2.274287737e-3 -0.027174343114 0.9963589817489 -0.080778403911 0.9963589817489 -0.080778403911 -2.132873174e-3 -0.027185807551
1.990000000000000 -2.297284350e-3 -0.027310552163 0.9963221455648 -0.081185135619 0.9963221455648 -0.081185135619 -2.154442663e-3 -0.027322191020
2.000000000000000 -2.320396134e-3 -0.027446745598 0.9962851245119 -0.081591848594 0.9962851245119 -0.081591848594 -2.176120231e-3 -0.027458560632
2.010000000000000 -2.343623077e-3 -0.027582923339 0.9962479186012 -0.081998542742 0.9962479186012 -0.081998542742 -2.197905870e-3 -0.027594916318
2.020000000000000 -2.366965170e-3 -0.027719085310 0.9962105278434 -0.082405217968 0.9962105278434 -0.082405217968 -2.219799572e-3 -0.027731258010
2.030000000000000 -2.390422403e-3 -0.027855231432 0.9961729522496 -0.082811874180 0.9961729522496 -0.082811874180 -2.241801328e-3 -0.027867585638
2.040000000000000 -2.413994765e-3 -0.027991361627 0.9961351918306 -0.083218511282 0.9961351918306 -0.083218511282 -2.263911129e-3 -0.028003899133
2.050000000000000 -2.437682247e-3 -0.028127475819 0.9960972465976 -0.083625129182 0.9960972465976 -0.083625129182 -2.286128967e-3 -0.028140198426
2.060000000000000 -2.461484838e-3 -0.028263573929 0.9960591165616 -0.084031727784 0.9960591165616 -0.084031727784 -2.308454832e-3 -0.028276483449
2.070000000000000 -2.485402527e-3 -0.028399655880 0.9960208017339 -0.084438306997 0.9960208017339 -0.084438306997 -2.330888716e-3 -0.028412754133
2.080000000000000 -2.509435304e-3 -0.028535721593 0.9959823021255 -0.084844866724 0.9959823021255 -0.084844866724 -2.353430611e-3 -0.028549010408
2.090000000000000 -2.533583159e-3 -0.028671770992 0.9959436177478 -0.085251406873 0.9959436177478 -0.085251406873 -2.376080507e-3 -0.028685252206
2.100000000000000 -2.557846082e-3 -0.028807803998 0.9959047486122 -0.085657927350 0.9959047486122 -0.085657927350 -2.398838395e-3 -0.028821479457
2.110000000000000 -2.582224062e-3 -0.028943820534 0.9958656947299 -0.086064428060 0.9958656947299 -0.086064428060 -2.421704267e-3 -0.028957692093
2.120000000000000 -2.606717087e-3 -0.029079820522 0.9958264561125 -0.086470908910 0.9958264561125 -0.086470908910 -2.444678113e-3 -0.029093890046
2.130000000000000 -2.631325149e-3 -0.029215803884 0.9957870327714 -0.086877369807 0.9957870327714 -0.086877369807 -2.467759924e-3 -0.029230073245
2.140000000000000 -2.656048235e-3 -0.029351770543 0.9957474247182 -0.087283810655 0.9957474247182 -0.087283810655 -2.490949692e-3 -0.029366241622
2.150000000000000 -2.680886335e-3 -0.029487720422 0.9957076319645 -0.087690231362 0.9957076319645 -0.087690231362 -2.514247407e-3 -0.029502395108
2.160000000000000 -2.705839440e-3 -0.029623653441 0.9956676545220 -0.088096631834 0.9956676545220 -0.088096631834 -2.537653061e-3 -0.029638533635
2.170000000000000 -2.730907537e-3 -0.029759569525 0.9956274924024 -0.088503011976 0.9956274924024 -0.088503011976 -2.561166643e-3 -0.029774657133
2.180000000000000 -2.756090615e-3 -0.029895468594 0.9955871456175 -0.088909371695 0.9955871456175 -0.088909371695 -2.584788145e-3 -0.029910765533
2.190000000000000 -2.781388665e-3 -0.030031350573 0.9955466141792 -0.089315710897 0.9955466141792 -0.089315710897 -2.608517558e-3 -0.030046858767
2.200000000000000 -2.806801675e-3 -0.030167215382 0.9955058980993 -0.089722029488 0.9955058980993 -0.089722029488 -2.632354871e-3 -0.030182936766
2.210000000000000 -2.832329634e-3 -0.030303062944 0.9954649973898 -0.090128327375 0.9954649973898 -0.090128327375 -2.656300077e-3 -0.030318999461
2.220000000000000 -2.857972531e-3 -0.030438893182 0.9954239120627 -0.090534604463 0.9954239120627 -0.090534604463 -2.680353165e-3 -0.030455046783
2.230000000000000 -2.883730355e-3 -0.030574706018 0.9953826421302 -0.090940860660 0.9953826421302 -0.090940860660 -2.704514126e-3 -0.030591078662
2.240000000000000 -2.909603095e-3 -0.030710501374 0.9953411876042 -0.091347095870 0.9953411876042 -0.091347095870 -2.728782950e-3 -0.030727095031
2.250000000000000 -2.935590739e-3 -0.030846279173 0.9952995484971 -0.091753310001 0.9952995484971 -0.091753310001 -2.753159629e-3 -0.030863095821
2.260000000000000 -2.961693277e-3 -0.030982039337 0.9952577248211 -0.092159502959 0.9952577248211 -0.092159502959 -2.777644152e-3 -0.030999080962
2.270000000000000 -2.987910697e-3 -0.031117781789 0.9952157165884 -0.092565674650 0.9952157165884 -0.092565674650 -2.802236510e-3 -0.031135050385
2.280000000000000 -3.014242988e-3 -0.031253506451 0.9951735238114 -0.092971824979 0.9951735238114 -0.092971824979 -2.826936694e-3 -0.031271004023
2.290000000000000 -3.040690139e-3 -0.031389213246 0.9951311465025 -0.093377953855 0.9951311465025 -0.093377953855 -2.851744694e-3 -0.031406941805
2.300000000000000 -3.067252138e-3 -0.031524902095 0.9950885846743 -0.093784061182 0.9950885846743 -0.093784061182 -2.876660499e-3 -0.031542863664
2.310000000000000 -3.093928973e-3 -0.031660572921 0.9950458383392 -0.094190146867 0.9950458383392 -0.094190146867 -2.901684101e-3 -0.031678769530
2.320000000000000 -3.120720634e-3 -0.031796225648 0.9950029075098 -0.094596210816 0.9950029075098 -0.094596210816 -2.926815489e-3 -0.031814659334
2.330000000000000 -3.147627108e-3 -0.031931860196 0.9949597921989 -0.095002252936 0.9949597921989 -0.095002252936 -2.952054654e-3 -0.031950533009
2.340000000000000 -3.174648384e-3 -0.032067476489 0.9949164924190 -0.095408273133 0.9949164924190 -0.095408273133 -2.977401586e-3 -0.032086390484
2.350000000000000 -3.201784451e-3 -0.032203074450 0.9948730081829 -0.095814271314 0.9948730081829 -0.095814271314 -3.002856275e-3 -0.032222231691
2.360000000000000 -3.229035297e-3 -0.032338653999 0.9948293395035 -0.096220247384 0.9948293395035 -0.096220247384 -3.028418711e-3 -0.032358056561
2.370000000000000 -3.256400909e-3 -0.032474215061 0.9947854863936 -0.096626201250 0.9947854863936 -0.096626201250 -3.054088884e-3 -0.032493865026
2.380000000000000 -3.283881277e-3 -0.032609757558 0.9947414488662 -0.097032132818 0.9947414488662 -0.097032132818 -3.079866785e-3 -0.032629657017
2.390000000000000 -3.311476388e-3 -0.032745281411 0.9946972269342 -0.097438041995 0.9946972269342 -0.097438041995 -3.105752402e-3 -0.032765432464
2.400000000000000 -3.339186231e-3 -0.032880786544 0.9946528206107 -0.097843928688 0.9946528206107 -0.097843928688 -3.131745727e-3 -0.032901191299
2.410000000000000 -3.367010793e-3 -0.033016272879 0.9946082299088 -0.098249792801 0.9946082299088 -0.098249792801 -3.157846748e-3 -0.033036933454
2.420000000000000 -3.394950063e-3 -0.033151740338 0.9945634548417 -0.098655634243 0.9945634548417 -0.098655634243 -3.184055456e-3 -0.033172658859
2.430000000000000 -3.423004029e-3 -0.033287188845 0.9945184954225 -0.099061452919 0.9945184954225 -0.099061452919 -3.210371841e-3 -0.033308367446
2.440000000000000 -3.451172678e-3 -0.033422618321 0.9944733516646 -0.099467248736 0.9944733516646 -0.099467248736 -3.236795892e-3 -0.033444059146
2.450000000000000 -3.479455999e-3 -0.033558028689 0.9944280235812 -0.099873021600 0.9944280235812 -0.099873021600 -3.263327599e-3 -0.033579733890
2.460000000000000 -3.507853979e-3 -0.033693419872 0.9943825111859 -0.100278771417 0.9943825111859 -0.100278771417 -3.289966952e-3 -0.033715391609
2.470000000000000 -3.536366607e-3 -0.033828791791 0.9943368144919 -0.100684498094 0.9943368144919 -0.100684498094 -3.316713940e-3 -0.033851032235
2.480000000000000 -3.564993869e-3 -0.033964144371 0.9942909335128 -0.101090201538 0.9942909335128 -0.101090201538 -3.343568553e-3 -0.033986655699
2.490000000000000 -3.593735754e-3 -0.034099477532 0.9942448682623 -0.101495881655 0.9942448682623 -0.101495881655 -3.370530780e-3 -0.034122261932
2.500000000000000 -3.622592250e-3 -0.034234791199 0.9941986187538 -0.101901538351 0.9941986187538 -0.101901538351 -3.397600612e-3 -0.034257850866
2.510000000000000 -3.651563343e-3 -0.034370085293 0.9941521850010 -0.102307171533 0.9941521850010 -0.102307171533 -3.424778037e-3 -0.034393422431
2.520000000000000 -3.680649022e-3 -0.034505359737 0.9941055670178 -0.102712781107 0.9941055670178 -0.102712781107 -3.452063046e-3 -0.034528976559
2.530000000000000 -3.709849274e-3 -0.034640614453 0.9940587648178 -0.103118366980 0.9940587648178 -0.103118366980 -3.479455626e-3 -0.034664513181
2.540000000000000 -3.739164086e-3 -0.034775849364 0.9940117784149 -0.103523929059 0.9940117784149 -0.103523929059 -3.506955769e-3 -0.034800032229
2.550000000000000 -3.768593447e-3 -0.034911064393 0.9939646078231 -0.103929467249 0.9939646078231 -0.103929467249 -3.534563462e-3 -0.034935533633
2.560000000000000 -3.798137343e-3 -0.035046259463 0.9939172530563 -0.104334981458 0.9939172530563 -0.104334981458 -3.562278696e-3 -0.035071017326
2.570000000000000 -3.827795761e-3 -0.035181434495 0.9938697141284 -0.104740471592 0.9938697141284 -0.104740471592 -3.590101460e-3 -0.035206483237
2.580000000000000 -3.857568690e-3 -0.035316589413 0.9938219910536 -0.105145937557 0.9938219910536 -0.105145937557 -3.618031742e-3 -0.035341931300
2.590000000000000 -3.887456115e-3 -0.035451724138 0.9937740838460 -0.105551379261 0.9937740838460 -0.105551379261 -3.646069533e-3 -0.035477361444
2.600000000000000 -3.917458026e-3 -0.035586838595 0.9937259925198 -0.105956796609 0.9937259925198 -0.105956796609 -3.674214821e-3 -0.035612773601
2.610000000000000 -3.947574408e-3 -0.035721932705 0.9936777170893 -0.106362189508 0.9936777170893 -0.106362189508 -3.702467595e-3 -0.035748167703
2.620000000000000 -3.977805248e-3 -0.035857006391 0.9936292575686 -0.106767557865 0.9936292575686 -0.106767557865 -3.730827844e-3 -0.035883543680
2.630000000000000 -4.008150535e-3 -0.035992059575 0.9935806139722 -0.107172901586 0.9935806139722 -0.107172901586 -3.759295558e-3 -0.036018901465
2.640000000000000 -4.038610254e-3 -0.036127092181 0.9935317863146 -0.107578220578 0.9935317863146 -0.107578220578 -3.787870725e-3 -0.036154240988
2.650000000000000 -4.069184393e-3 -0.036262104131 0.9934827746101 -0.107983514748 0.9934827746101 -0.107983514748 -3.816553335e-3 -0.036289562181
2.660000000000000 -4.099872938e-3 -0.036397095348 0.9934335788733 -0.108388784003 0.9934335788733 -0.108388784003 -3.845343375e-3 -0.036424864974
2.670000000000000 -4.130675878e-3 -0.036532065754 0.9933841991187 -0.108794028248 0.9933841991187 -0.108794028248 -3.874240836e-3 -0.036560149301
2.680000000000000 -4.161593197e-3 -0.036667015272 0.9933346353611 -0.109199247390 0.9933346353611 -0.109199247390 -3.903245706e-3 -0.036695415090
2.690000000000000 -4.192624884e-3 -0.036801943824 0.9932848876152 -0.109604441337 0.9932848876152 -0.109604441337 -3.932357973e-3 -0.036830662275
2.700000000000000 -4.223770925e-3 -0.036936851334 0.9932349558955 -0.110009609995 0.9932349558955 -0.110009609995 -3.961577627e-3 -0.036965890786
2.710000000000000 -4.255031307e-3 -0.037071737724 0.9931848402171 -0.110414753270 0.9931848402171 -0.110414753270 -3.990904656e-3 -0.037101100555
2.720000000000000 -4.286406016e-3 -0.037206602917 0.9931345405948 -0.110819871069 0.9931345405948 -0.110819871069 -4.020339048e-3 -0.037236291513
2.730000000000000 -4.317895038e-3 -0.037341446836 0.9930840570434 -0.111224963299 0.9930840570434 -0.111224963299 -4.049880793e-3 -0.037371463592
2.740000000000000 -4.349498362e-3 -0.037476269402 0.9930333895780 -0.111630029867 0.9930333895780 -0.111630029867 -4.079529879e-3 -0.037506616722
2.750000000000000 -4.381215972e-3 -0.037611070540 0.9929825382136 -0.112035070679 0.9929825382136 -0.112035070679 -4.109286295e-3 -0.037641750836
2.760000000000000 -4.413047855e-3 -0.037745850171 0.9929315029653 -0.112440085643 0.9929315029653 -0.112440085643 -4.139150028e-3 -0.037776865864
2.770000000000000 -4.444993999e-3 -0.037880608219 0.9928802838483 -0.112845074664 0.9928802838483 -0.112845074664 -4.169121068e-3 -0.037911961737
2.780000000000000 -4.477054388e-3 -0.038015344606 0.9928288808777 -0.113250037650 0.9928288808777 -0.113250037650 -4.199199403e-3 -0.038047038388
2.790000000000000 -4.509229010e-3 -0.038150059255 0.9927772940689 -0.113654974507 0.9927772940689 -0.113654974507 -4.229385022e-3 -0.038182095748
2.800000000000000 -4.541517851e-3 -0.038284752088 0.9927255234371 -0.114059885142 0.9927255234371 -0.114059885142 -4.259677912e-3 -0.038317133748
2.810000000000000 -4.573920897e-3 -0.038419423030 0.9926735689977 -0.114464769462 0.9926735689977 -0.114464769462 -4.290078062e-3 -0.038452152319
2.820000000000000 -4.606438134e-3 -0.038554072001 0.9926214307663 -0.114869627374 0.9926214307663 -0.114869627374 -4.320585460e-3 -0.038587151393
2.830000000000000 -4.639069549e-3 -0.038688698926 0.9925691087582 -0.115274458784 0.9925691087582 -0.115274458784 -4.351200095e-3 -0.038722130901
2.840000000000000 -4.671815127e-3 -0.038823303726 0.9925166029890 -0.115679263600 0.9925166029890 -0.115679263600 -4.381921954e-3 -0.038857090775
2.850000000000000 -4.704674854e-3 -0.038957886325 0.9924639134744 -0.116084041728 0.9924639134744 -0.116084041728 -4.412751027e-3 -0.038992030946
2.860000000000000 -4.737648717e-3 -0.039092446646 0.9924110402299 -0.116488793074 0.9924110402299 -0.116488793074 -4.443687300e-3 -0.039126951345
2.870000000000000 -4.770736701e-3 -0.039226984611 0.9923579832714 -0.116893517547 0.9923579832714 -0.116893517547 -4.474730762e-3 -0.039261851904
2.880000000000000 -4.803938793e-3 -0.039361500143 0.9923047426145 -0.117298215052 0.9923047426145 -0.117298215052 -4.505881402e-3 -0.039396732555
2.890000000000000 -4.837254978e-3 -0.039495993165 0.9922513182752 -0.117702885497 0.9922513182752 -0.117702885497 -4.537139206e-3 -0.039531593228
2.900000000000000 -4.870685242e-3 -0.039630463600 0.9921977102693 -0.118107528789 0.9921977102693 -0.118107528789 -4.568504164e-3 -0.039666433855
2.910000000000000 -4.904229571e-3 -0.039764911371 0.9921439186128 -0.118512144833 0.9921439186128 -0.118512144833 -4.599976262e-3 -0.039801254368
2.920000000000000 -4.937887950e-3 -0.039899336400 0.9920899433216 -0.118916733538 0.9920899433216 -0.118916733538 -4.631555490e-3 -0.039936054697
2.930000000000000 -4.971660365e-3 -0.040033738610 0.9920357844119 -0.119321294811 0.9920357844119 -0.119321294811 -4.663241834e-3 -0.040070834776
2.940000000000000 -5.005546802e-3 -0.040168117925 0.9919814418997 -0.119725828557 0.9919814418997 -0.119725828557 -4.695035282e-3 -0.040205594534
2.950000000000000 -5.039547247e-3 -0.040302474267 0.9919269158012 -0.120130334684 0.9919269158012 -0.120130334684 -4.726935823e-3 -0.040340333903
2.960000000000000 -5.073661684e-3 -0.040436807559 0.9918722061327 -0.120534813100 0.9918722061327 -0.120534813100 -4.758943444e-3 -0.040475052815
2.970000000000000 -5.107890100e-3 -0.040571117724 0.9918173129105 -0.120939263710 0.9918173129105 -0.120939263710 -4.791058132e-3 -0.040609751202
2.980000000000000 -5.142232480e-3 -0.040705404685 0.9917622361508 -0.121343686423 0.9917622361508 -0.121343686423 -4.823279875e-3 -0.040744428994
2.990000000000000 -5.176688809e-3 -0.040839668364 0.9917069758701 -0.121748081144 0.9917069758701 -0.121748081144 -4.855608662e-3 -0.040879086123
3.000000000000000 -5.211259071e-3 -0.040973908684 0.9916515320855 -0.122152447780 0.9916515320853 -0.122152447780 -4.888044480e-3 -0.041013722522
! P1 F=3.0 Eeff=(6.38301 + j0) Z0=(51.3537 + j0)
! P2 F=3.0 Eeff=(6.38301 + j0) Z0=(51.3537 + j0)
