! Sonnet Data File
! From: emclient Version : 17.56
! From Project: hybrid_idc_lekid_auto_lengths
! Data is De-embedded 
! Data File Written: 01/19/2023 14:10:11
!< HDATE 01/19/2023 14:06:09
!< MDATE 01/19/2023 14:06:09
!< PARAMS
!< idc_length = 719.840625
!< coupler_length = 132.53152239741
!< f0 = 2.25e9
!< END PARAMS
# GHZ S RI R 50.00000
0.500000000000000 -1.399617836e-4 -7.691555761e-3 0.9997321215249 -0.021772996789 0.9997321215249 -0.021772996789 -1.974797569e-4 -7.690294704e-3
! P1 F=0.5 Eeff=(6.35597 - j6.5787e-05) Z0=(53.4106 + j0.000276435)
! P2 F=0.5 Eeff=(6.35597 - j6.5787e-05) Z0=(53.4106 + j0.000276435)
0.510000000000000 -1.456034748e-4 -7.845352522e-3 0.9997213127057 -0.022208374803 0.9997213127057 -0.022208374803 -2.054433348e-4 -7.844017411e-3
0.520000000000000 -1.513553110e-4 -7.999146112e-3 0.9997102913829 -0.022643747157 0.9997102913829 -0.022643747157 -2.135631803e-4 -7.997733821e-3
0.530000000000000 -1.572173151e-4 -8.152936514e-3 0.9996990575380 -0.023079113773 0.9996990575380 -0.023079113773 -2.218393055e-4 -8.151443847e-3
0.540000000000000 -1.631895097e-4 -8.306723708e-3 0.9996876111525 -0.023514474572 0.9996876111525 -0.023514474572 -2.302717226e-4 -8.305147400e-3
0.550000000000000 -1.692719178e-4 -8.460507673e-3 0.9996759522077 -0.023949829475 0.9996759522077 -0.023949829475 -2.388604435e-4 -8.458844391e-3
0.560000000000000 -1.754645626e-4 -8.614288389e-3 0.9996640806853 -0.024385178402 0.9996640806853 -0.024385178402 -2.476054799e-4 -8.612534729e-3
0.570000000000000 -1.817674672e-4 -8.768065834e-3 0.9996519965669 -0.024820521272 0.9996519965669 -0.024820521272 -2.565068436e-4 -8.766218326e-3
0.580000000000000 -1.881806550e-4 -8.921839985e-3 0.9996396998342 -0.025255858005 0.9996396998342 -0.025255858005 -2.655645460e-4 -8.919895091e-3
0.590000000000000 -1.947041494e-4 -9.075610818e-3 0.9996271904691 -0.025691188518 0.9996271904691 -0.025691188518 -2.747785985e-4 -9.073564934e-3
0.600000000000000 -2.013379737e-4 -9.229378308e-3 0.9996144684536 -0.026126512729 0.9996144684536 -0.026126512729 -2.841490125e-4 -9.227227762e-3
0.610000000000000 -2.080821515e-4 -9.383142430e-3 0.9996015337697 -0.026561830556 0.9996015337697 -0.026561830556 -2.936757992e-4 -9.380883486e-3
0.620000000000000 -2.149367061e-4 -9.536903159e-3 0.9995883863995 -0.026997141914 0.9995883863995 -0.026997141914 -3.033589694e-4 -9.534532014e-3
0.630000000000000 -2.219016610e-4 -9.690660466e-3 0.9995750263255 -0.027432446721 0.9995750263255 -0.027432446721 -3.131985342e-4 -9.688173253e-3
0.640000000000000 -2.289770395e-4 -9.844414324e-3 0.9995614535301 -0.027867744891 0.9995614535301 -0.027867744891 -3.231945044e-4 -9.841807111e-3
0.650000000000000 -2.361628649e-4 -9.998164705e-3 0.9995476679958 -0.028303036339 0.9995476679958 -0.028303036339 -3.333468905e-4 -9.995433497e-3
0.660000000000000 -2.434591604e-4 -0.010151911578 0.9995336697056 -0.028738320981 0.9995336697056 -0.028738320981 -3.436557032e-4 -0.010149052316
0.670000000000000 -2.508659491e-4 -0.010305654913 0.9995194586423 -0.029173598730 0.9995194586423 -0.029173598730 -3.541209527e-4 -0.010302663476
0.680000000000000 -2.583832538e-4 -0.010459394680 0.9995050347891 -0.029608869499 0.9995050347891 -0.029608869499 -3.647426494e-4 -0.010456266883
0.690000000000000 -2.660110972e-4 -0.010613130847 0.9994903981294 -0.030044133201 0.9994903981294 -0.030044133201 -3.755208034e-4 -0.010609862444
0.700000000000000 -2.737495019e-4 -0.010766863380 0.9994755486468 -0.030479389750 0.9994755486468 -0.030479389750 -3.864554245e-4 -0.010763450064
0.710000000000000 -2.815984900e-4 -0.010920592246 0.9994604863249 -0.030914639056 0.9994604863249 -0.030914639056 -3.975465227e-4 -0.010917029649
0.720000000000000 -2.895580838e-4 -0.011074317411 0.9994452111479 -0.031349881032 0.9994452111479 -0.031349881032 -4.087941076e-4 -0.011070601105
0.730000000000000 -2.976283048e-4 -0.011228038840 0.9994297231000 -0.031785115589 0.9994297231000 -0.031785115589 -4.201981887e-4 -0.011224164337
0.740000000000000 -3.058091745e-4 -0.011381756499 0.9994140221656 -0.032220342638 0.9994140221656 -0.032220342638 -4.317587753e-4 -0.011377719249
0.750000000000000 -3.141007142e-4 -0.011535470349 0.9993981083296 -0.032655562088 0.9993981083296 -0.032655562088 -4.434758766e-4 -0.011531265745
0.760000000000000 -3.225029445e-4 -0.011689180354 0.9993819815770 -0.033090773850 0.9993819815770 -0.033090773850 -4.553495017e-4 -0.011684803732
0.770000000000000 -3.310158858e-4 -0.011842886478 0.9993656418931 -0.033525977832 0.9993656418931 -0.033525977832 -4.673796594e-4 -0.011838333112
0.780000000000000 -3.396395583e-4 -0.011996588681 0.9993490892635 -0.033961173945 0.9993490892635 -0.033961173945 -4.795663583e-4 -0.011991853789
0.790000000000000 -3.483739815e-4 -0.012150286924 0.9993323236742 -0.034396362097 0.9993323236742 -0.034396362097 -4.919096070e-4 -0.012145365667
0.800000000000000 -3.572191746e-4 -0.012303981168 0.9993153451113 -0.034831542196 0.9993153451113 -0.034831542196 -5.044094136e-4 -0.012298868649
0.810000000000000 -3.661751565e-4 -0.012457671374 0.9992981535615 -0.035266714150 0.9992981535615 -0.035266714150 -5.170657864e-4 -0.012452362638
0.820000000000000 -3.752419455e-4 -0.012611357500 0.9992807490117 -0.035701877866 0.9992807490117 -0.035701877866 -5.298787331e-4 -0.012605847538
0.830000000000000 -3.844195594e-4 -0.012765039506 0.9992631314490 -0.036137033253 0.9992631314490 -0.036137033253 -5.428482616e-4 -0.012759323250
0.840000000000000 -3.937080156e-4 -0.012918717350 0.9992453008611 -0.036572180217 0.9992453008611 -0.036572180217 -5.559743792e-4 -0.012912789678
0.850000000000000 -4.031073310e-4 -0.013072390989 0.9992272572358 -0.037007318664 0.9992272572358 -0.037007318664 -5.692570932e-4 -0.013066246723
0.860000000000000 -4.126175219e-4 -0.013226060382 0.9992090005615 -0.037442448501 0.9992090005615 -0.037442448501 -5.826964107e-4 -0.013219694288
0.870000000000000 -4.222386043e-4 -0.013379725486 0.9991905308269 -0.037877569635 0.9991905308269 -0.037877569635 -5.962923385e-4 -0.013373132275
0.880000000000000 -4.319705935e-4 -0.013533386257 0.9991718480209 -0.038312681971 0.9991718480209 -0.038312681971 -6.100448832e-4 -0.013526560585
0.890000000000000 -4.418135043e-4 -0.013687042652 0.9991529521330 -0.038747785415 0.9991529521330 -0.038747785415 -6.239540512e-4 -0.013679979119
0.900000000000000 -4.517673510e-4 -0.013840694627 0.9991338431529 -0.039182879873 0.9991338431529 -0.039182879873 -6.380198486e-4 -0.013833387781
0.910000000000000 -4.618321474e-4 -0.013994342138 0.9991145210710 -0.039617965249 0.9991145210710 -0.039617965249 -6.522422814e-4 -0.013986786470
0.920000000000000 -4.720079067e-4 -0.014147985140 0.9990949858776 -0.040053041449 0.9990949858776 -0.040053041449 -6.666213552e-4 -0.014140175087
0.930000000000000 -4.822946415e-4 -0.014301623588 0.9990752375638 -0.040488108378 0.9990752375638 -0.040488108378 -6.811570755e-4 -0.014293553535
0.940000000000000 -4.926923641e-4 -0.014455257437 0.9990552761210 -0.040923165941 0.9990552761210 -0.040923165941 -6.958494475e-4 -0.014446921714
0.950000000000000 -5.032010859e-4 -0.014608886643 0.9990351015409 -0.041358214042 0.9990351015409 -0.041358214042 -7.106984760e-4 -0.014600279524
0.960000000000000 -5.138208180e-4 -0.014762511161 0.9990147138155 -0.041793252586 0.9990147138155 -0.041793252586 -7.257041659e-4 -0.014753626866
0.970000000000000 -5.245515710e-4 -0.014916130943 0.9989941129375 -0.042228281478 0.9989941129375 -0.042228281478 -7.408665217e-4 -0.014906963642
0.980000000000000 -5.353933548e-4 -0.015069745946 0.9989732988997 -0.042663300623 0.9989732988997 -0.042663300623 -7.561855475e-4 -0.015060289752
0.990000000000000 -5.463461790e-4 -0.015223356123 0.9989522716954 -0.043098309923 0.9989522716954 -0.043098309923 -7.716612475e-4 -0.015213605096
1.000000000000000 -5.574100525e-4 -0.015376961429 0.9989310313182 -0.043533309285 0.9989310313183 -0.043533309285 -7.872936253e-4 -0.015366909575
! P1 F=1.0 Eeff=(6.35596 - j6.5774e-05) Z0=(53.4106 + j0.000276474)
! P2 F=1.0 Eeff=(6.35596 - j6.5774e-05) Z0=(53.4106 + j0.000276474)
1.010000000000000 -5.685850155e-4 -0.015530561839 0.9989095776665 -0.043968298644 0.9989095776665 -0.043968298644 -8.030828446e-4 -0.015520203132
1.020000000000000 -5.798711077e-4 -0.015684157329 0.9988879106401 -0.044403277937 0.9988879106401 -0.044403277937 -8.190290656e-4 -0.015673485711
1.030000000000000 -5.912683365e-4 -0.015837747853 0.9988660302362 -0.044838247066 0.9988660302362 -0.044838247066 -8.351322864e-4 -0.015826757210
1.040000000000000 -6.027767089e-4 -0.015991333366 0.9988439364530 -0.045273205936 0.9988439364530 -0.045273205936 -8.513925047e-4 -0.015980017530
1.050000000000000 -6.143962311e-4 -0.016144913822 0.9988216292888 -0.045708154449 0.9988216292888 -0.045708154449 -8.678097173e-4 -0.016133266568
1.060000000000000 -6.261269088e-4 -0.016298489174 0.9987991087430 -0.046143092511 0.9987991087430 -0.046143092511 -8.843839203e-4 -0.016286504224
1.070000000000000 -6.379687471e-4 -0.016452059378 0.9987763748151 -0.046578020024 0.9987763748151 -0.046578020024 -9.011151092e-4 -0.016439730397
1.080000000000000 -6.499217508e-4 -0.016605624388 0.9987534275058 -0.047012936892 0.9987534275058 -0.047012936892 -9.180032789e-4 -0.016592944986
1.090000000000000 -6.619859239e-4 -0.016759184158 0.9987302668158 -0.047447843018 0.9987302668158 -0.047447843018 -9.350484235e-4 -0.016746147889
1.100000000000000 -6.741612701e-4 -0.016912738641 0.9987068927467 -0.047882738307 0.9987068927467 -0.047882738307 -9.522505367e-4 -0.016899339005
1.110000000000000 -6.864477924e-4 -0.017066287793 0.9986833053006 -0.048317622661 0.9986833053006 -0.048317622661 -9.696096114e-4 -0.017052518233
1.120000000000000 -6.988454935e-4 -0.017219831569 0.9986595044801 -0.048752495986 0.9986595044801 -0.048752495986 -9.871256399e-4 -0.017205685471
1.130000000000000 -7.113543756e-4 -0.017373369921 0.9986354902885 -0.049187358183 0.9986354902885 -0.049187358183 -1.004798614e-3 -0.017358840617
1.140000000000000 -7.239744404e-4 -0.017526902806 0.9986112627293 -0.049622209158 0.9986112627293 -0.049622209158 -1.022628525e-3 -0.017511983570
1.150000000000000 -7.367056893e-4 -0.017680430178 0.9985868218069 -0.050057048815 0.9985868218069 -0.050057048815 -1.040615363e-3 -0.017665114228
1.160000000000000 -7.495481230e-4 -0.017833951992 0.9985621675259 -0.050491877056 0.9985621675259 -0.050491877056 -1.058759119e-3 -0.017818232490
1.170000000000000 -7.625017421e-4 -0.017987468202 0.9985372998915 -0.050926693788 0.9985372998915 -0.050926693788 -1.077059782e-3 -0.017971338254
1.180000000000000 -7.755665467e-4 -0.018140978765 0.9985122189094 -0.051361498913 0.9985122189094 -0.051361498913 -1.095517340e-3 -0.018124431418
1.190000000000000 -7.887425365e-4 -0.018294483635 0.9984869245858 -0.051796292336 0.9984869245858 -0.051796292336 -1.114131783e-3 -0.018277511881
1.200000000000000 -8.020297108e-4 -0.018447982767 0.9984614169272 -0.052231073962 0.9984614169272 -0.052231073962 -1.132903097e-3 -0.018430579541
1.210000000000000 -8.154280688e-4 -0.018601476118 0.9984356959406 -0.052665843695 0.9984356959406 -0.052665843695 -1.151831272e-3 -0.018583634295
1.220000000000000 -8.289376092e-4 -0.018754963643 0.9984097616335 -0.053100601440 0.9984097616335 -0.053100601440 -1.170916292e-3 -0.018736676044
1.230000000000000 -8.425583304e-4 -0.018908445298 0.9983836140136 -0.053535347102 0.9983836140136 -0.053535347102 -1.190158146e-3 -0.018889704684
1.240000000000000 -8.562902305e-4 -0.019061921040 0.9983572530894 -0.053970080586 0.9983572530894 -0.053970080586 -1.209556818e-3 -0.019042720115
1.250000000000000 -8.701333074e-4 -0.019215390824 0.9983306788692 -0.054404801798 0.9983306788692 -0.054404801798 -1.229112294e-3 -0.019195722234
1.260000000000000 -8.840875587e-4 -0.019368854607 0.9983038913623 -0.054839510641 0.9983038913623 -0.054839510641 -1.248824560e-3 -0.019348710941
1.270000000000000 -8.981529819e-4 -0.019522312345 0.9982768905778 -0.055274207023 0.9982768905778 -0.055274207023 -1.268693599e-3 -0.019501686133
1.280000000000000 -9.123295740e-4 -0.019675763996 0.9982496765255 -0.055708890848 0.9982496765255 -0.055708890848 -1.288719396e-3 -0.019654647710
1.290000000000000 -9.266173321e-4 -0.019829209517 0.9982222492154 -0.056143562022 0.9982222492154 -0.056143562022 -1.308901935e-3 -0.019807595569
1.300000000000000 -9.410162528e-4 -0.019982648864 0.9981946086579 -0.056578220451 0.9981946086579 -0.056578220451 -1.329241198e-3 -0.019960529609
1.310000000000000 -9.555263328e-4 -0.020136081996 0.9981667548636 -0.057012866040 0.9981667548636 -0.057012866040 -1.349737169e-3 -0.020113449729
1.320000000000000 -9.701475684e-4 -0.020289508868 0.9981386878435 -0.057447498697 0.9981386878435 -0.057447498697 -1.370389830e-3 -0.020266355827
1.330000000000000 -9.848799559e-4 -0.020442929441 0.9981104076089 -0.057882118327 0.9981104076089 -0.057882118327 -1.391199163e-3 -0.020419247802
1.340000000000000 -9.997234915e-4 -0.020596343670 0.9980819141713 -0.058316724836 0.9980819141713 -0.058316724836 -1.412165149e-3 -0.020572125553
1.350000000000000 -1.014678171e-3 -0.020749751514 0.9980532075424 -0.058751318132 0.9980532075424 -0.058751318132 -1.433287771e-3 -0.020724988978
1.360000000000000 -1.029743990e-3 -0.020903152932 0.9980242877344 -0.059185898120 0.9980242877344 -0.059185898120 -1.454567008e-3 -0.020877837975
1.370000000000000 -1.044920945e-3 -0.021056547881 0.9979951547597 -0.059620464707 0.9979951547597 -0.059620464707 -1.476002841e-3 -0.021030672445
1.380000000000000 -1.060209032e-3 -0.021209936319 0.9979658086307 -0.060055017800 0.9979658086307 -0.060055017800 -1.497595250e-3 -0.021183492285
1.390000000000000 -1.075608245e-3 -0.021363318207 0.9979362493603 -0.060489557306 0.9979362493603 -0.060489557306 -1.519344216e-3 -0.021336297393
1.400000000000000 -1.091118580e-3 -0.021516693502 0.9979064769616 -0.060924083132 0.9979064769616 -0.060924083132 -1.541249717e-3 -0.021489087670
1.410000000000000 -1.106740033e-3 -0.021670062162 0.9978764914479 -0.061358595185 0.9978764914479 -0.061358595185 -1.563311732e-3 -0.021641863012
1.420000000000000 -1.122472599e-3 -0.021823424148 0.9978462928326 -0.061793093372 0.9978462928326 -0.061793093372 -1.585530240e-3 -0.021794623320
1.430000000000000 -1.138316274e-3 -0.021976779417 0.9978158811296 -0.062227577600 0.9978158811296 -0.062227577600 -1.607905219e-3 -0.021947368491
1.440000000000000 -1.154271052e-3 -0.022130127930 0.9977852563527 -0.062662047777 0.9977852563527 -0.062662047777 -1.630436647e-3 -0.022100098425
1.450000000000000 -1.170336929e-3 -0.022283469644 0.9977544185161 -0.063096503809 0.9977544185161 -0.063096503809 -1.653124502e-3 -0.022252813019
1.460000000000000 -1.186513900e-3 -0.022436804520 0.9977233676341 -0.063530945605 0.9977233676341 -0.063530945605 -1.675968761e-3 -0.022405512173
1.470000000000000 -1.202801960e-3 -0.022590132517 0.9976921037214 -0.063965373071 0.9976921037214 -0.063965373071 -1.698969400e-3 -0.022558195785
1.480000000000000 -1.219201104e-3 -0.022743453594 0.9976606267927 -0.064399786115 0.9976606267927 -0.064399786115 -1.722126396e-3 -0.022710863753
1.490000000000000 -1.235711328e-3 -0.022896767711 0.9976289368630 -0.064834184645 0.9976289368630 -0.064834184645 -1.745439726e-3 -0.022863515975
1.500000000000000 -1.252332626e-3 -0.023050074827 0.9975970339474 -0.065268568568 0.9975970339474 -0.065268568568 -1.768909364e-3 -0.023016152351
1.510000000000000 -1.269064994e-3 -0.023203374901 0.9975649180614 -0.065702937791 0.9975649180614 -0.065702937791 -1.792535287e-3 -0.023168772779
1.520000000000000 -1.285908426e-3 -0.023356667893 0.9975325892204 -0.066137292221 0.9975325892204 -0.066137292221 -1.816317468e-3 -0.023321377156
1.530000000000000 -1.302862918e-3 -0.023509953763 0.9975000474403 -0.066571631767 0.9975000474403 -0.066571631767 -1.840255884e-3 -0.023473965380
1.540000000000000 -1.319928464e-3 -0.023663232469 0.9974672927370 -0.067005956336 0.9974672927370 -0.067005956336 -1.864350507e-3 -0.023626537350
1.550000000000000 -1.337105060e-3 -0.023816503973 0.9974343251268 -0.067440265835 0.9974343251268 -0.067440265835 -1.888601312e-3 -0.023779092964
1.560000000000000 -1.354392700e-3 -0.023969768232 0.9974011446260 -0.067874560171 0.9974011446260 -0.067874560171 -1.913008273e-3 -0.023931632119
1.570000000000000 -1.371791380e-3 -0.024123025206 0.9973677512511 -0.068308839252 0.9973677512511 -0.068308839252 -1.937571361e-3 -0.024084154712
1.580000000000000 -1.389301094e-3 -0.024276274856 0.9973341450191 -0.068743102985 0.9973341450191 -0.068743102985 -1.962290551e-3 -0.024236660643
1.590000000000000 -1.406921838e-3 -0.024429517140 0.9973003259469 -0.069177351278 0.9973003259469 -0.069177351278 -1.987165814e-3 -0.024389149807
1.600000000000000 -1.424653605e-3 -0.024582752017 0.9972662940518 -0.069611584036 0.9972662940518 -0.069611584036 -2.012197121e-3 -0.024541622102
1.610000000000000 -1.442496392e-3 -0.024735979447 0.9972320493513 -0.070045801168 0.9972320493513 -0.070045801168 -2.037384446e-3 -0.024694077425
1.620000000000000 -1.460450193e-3 -0.024889199388 0.9971975918630 -0.070480002580 0.9971975918630 -0.070480002580 -2.062727757e-3 -0.024846515673
1.630000000000000 -1.478515003e-3 -0.025042411801 0.9971629216050 -0.070914188179 0.9971629216050 -0.070914188179 -2.088227026e-3 -0.024998936743
1.640000000000000 -1.496690816e-3 -0.025195616643 0.9971280385954 -0.071348357872 0.9971280385954 -0.071348357872 -2.113882223e-3 -0.025151340531
1.650000000000000 -1.514977628e-3 -0.025348813874 0.9970929428526 -0.071782511566 0.9970929428526 -0.071782511566 -2.139693317e-3 -0.025303726933
1.660000000000000 -1.533375432e-3 -0.025502003452 0.9970576343955 -0.072216649167 0.9970576343955 -0.072216649167 -2.165660277e-3 -0.025456095847
1.670000000000000 -1.551884224e-3 -0.025655185336 0.9970221132428 -0.072650770581 0.9970221132428 -0.072650770581 -2.191783073e-3 -0.025608447167
1.680000000000000 -1.570503999e-3 -0.025808359485 0.9969863794140 -0.073084875714 0.9969863794140 -0.073084875714 -2.218061672e-3 -0.025760780790
1.690000000000000 -1.589234749e-3 -0.025961525856 0.9969504329285 -0.073518964473 0.9969504329285 -0.073518964473 -2.244496041e-3 -0.025913096611
1.700000000000000 -1.608076471e-3 -0.026114684409 0.9969142738062 -0.073953036764 0.9969142738062 -0.073953036764 -2.271086149e-3 -0.026065394526
1.710000000000000 -1.627029159e-3 -0.026267835100 0.9968779020671 -0.074387092492 0.9968779020671 -0.074387092492 -2.297831960e-3 -0.026217674429
1.720000000000000 -1.646092806e-3 -0.026420977889 0.9968413177319 -0.074821131564 0.9968413177319 -0.074821131564 -2.324733442e-3 -0.026369936215
1.730000000000000 -1.665267406e-3 -0.026574112732 0.9968045208212 -0.075255153884 0.9968045208212 -0.075255153884 -2.351790559e-3 -0.026522179779
1.740000000000000 -1.684552954e-3 -0.026727239587 0.9967675113561 -0.075689159358 0.9967675113561 -0.075689159357 -2.379003277e-3 -0.026674405016
! P1 F=1.74 Eeff=(6.35595 - j6.5772e-05) Z0=(53.4105 + j0.000276469)
! P2 F=1.74 Eeff=(6.35595 - j6.5772e-05) Z0=(53.4105 + j0.000276469)
1.750000000000000 -1.703949522e-3 -0.026880358458 0.9967302891770 -0.076123147947 0.9967302891770 -0.076123147947 -2.406371844e-3 -0.026826611888
1.760000000000000 -1.723457189e-3 -0.027033469351 0.9966928541093 -0.076557119619 0.9966928541093 -0.076557119619 -2.433896530e-3 -0.026978800366
1.770000000000000 -1.743075960e-3 -0.027186572229 0.9966552061524 -0.076991074285 0.9966552061524 -0.076991074285 -2.461577334e-3 -0.027130970350
1.780000000000000 -1.762805839e-3 -0.027339667054 0.9966173453054 -0.077425011856 0.9966173453054 -0.077425011856 -2.489414253e-3 -0.027283121741
1.790000000000000 -1.782646832e-3 -0.027492753789 0.9965792715674 -0.077858932242 0.9965792715674 -0.077858932242 -2.517407286e-3 -0.027435254440
1.800000000000000 -1.802598945e-3 -0.027645832396 0.9965409849373 -0.078292835355 0.9965409849373 -0.078292835355 -2.545556430e-3 -0.027587368348
1.810000000000000 -1.822662183e-3 -0.027798902838 0.9965024854141 -0.078726721106 0.9965024854141 -0.078726721106 -2.573861685e-3 -0.027739463366
1.820000000000000 -1.842836551e-3 -0.027951965074 0.9964637729965 -0.079160589404 0.9964637729965 -0.079160589404 -2.602323047e-3 -0.027891539394
1.830000000000000 -1.863122056e-3 -0.028105019069 0.9964248476832 -0.079594440162 0.9964248476832 -0.079594440162 -2.630940516e-3 -0.028043596333
1.840000000000000 -1.883518703e-3 -0.028258064783 0.9963857094729 -0.080028273289 0.9963857094729 -0.080028273289 -2.659714089e-3 -0.028195634082
1.850000000000000 -1.904026498e-3 -0.028411102179 0.9963463583641 -0.080462088695 0.9963463583641 -0.080462088695 -2.688643766e-3 -0.028347652541
1.860000000000000 -1.924645448e-3 -0.028564131216 0.9963067943554 -0.080895886291 0.9963067943554 -0.080895886291 -2.717729544e-3 -0.028499651611
1.870000000000000 -1.945375559e-3 -0.028717151858 0.9962670174453 -0.081329665986 0.9962670174453 -0.081329665986 -2.746971421e-3 -0.028651631190
1.880000000000000 -1.966216836e-3 -0.028870164064 0.9962270276323 -0.081763427692 0.9962270276323 -0.081763427692 -2.776369397e-3 -0.028803591179
1.890000000000000 -1.987169287e-3 -0.029023167796 0.9961868249146 -0.082197171317 0.9961868249146 -0.082197171317 -2.805923468e-3 -0.028955531476
1.900000000000000 -2.008232918e-3 -0.029176163014 0.9961464092909 -0.082630896771 0.9961464092909 -0.082630896771 -2.835633635e-3 -0.029107451980
1.910000000000000 -2.029407735e-3 -0.029329149680 0.9961057807594 -0.083064603964 0.9961057807594 -0.083064603964 -2.865499895e-3 -0.029259352591
1.920000000000000 -2.050693745e-3 -0.029482127754 0.9960649393186 -0.083498292805 0.9960649393186 -0.083498292805 -2.895522245e-3 -0.029411233206
1.930000000000000 -2.072090954e-3 -0.029635097197 0.9960238849670 -0.083931963204 0.9960238849670 -0.083931963204 -2.925700685e-3 -0.029563093726
1.940000000000000 -2.093599369e-3 -0.029788057968 0.9959826177029 -0.084365615069 0.9959826177029 -0.084365615069 -2.956035213e-3 -0.029714934047
1.950000000000000 -2.115218997e-3 -0.029941010028 0.9959411375249 -0.084799248311 0.9959411375249 -0.084799248311 -2.986525825e-3 -0.029866754069
1.960000000000000 -2.136949845e-3 -0.030093953337 0.9958994444315 -0.085232862837 0.9958994444315 -0.085232862837 -3.017172522e-3 -0.030018553689
1.970000000000000 -2.158791918e-3 -0.030246887854 0.9958575384213 -0.085666458556 0.9958575384213 -0.085666458556 -3.047975299e-3 -0.030170332806
1.980000000000000 -2.180745224e-3 -0.030399813541 0.9958154194929 -0.086100035378 0.9958154194929 -0.086100035378 -3.078934156e-3 -0.030322091317
1.990000000000000 -2.202809769e-3 -0.030552730355 0.9957730876449 -0.086533593212 0.9957730876449 -0.086533593212 -3.110049089e-3 -0.030473829120
2.000000000000000 -2.224985561e-3 -0.030705638258 0.9957305428763 -0.086967131965 0.9957305428763 -0.086967131965 -3.141320096e-3 -0.030625546113
2.010000000000000 -2.247272604e-3 -0.030858537207 0.9956877851859 -0.087400651546 0.9956877851859 -0.087400651546 -3.172747174e-3 -0.030777242193
2.020000000000000 -2.269670907e-3 -0.031011427164 0.9956448145725 -0.087834151864 0.9956448145725 -0.087834151864 -3.204330322e-3 -0.030928917257
2.030000000000000 -2.292180476e-3 -0.031164308086 0.9956016310354 -0.088267632827 0.9956016310354 -0.088267632827 -3.236069535e-3 -0.031080571203
2.040000000000000 -2.314801316e-3 -0.031317179933 0.9955582345738 -0.088701094343 0.9955582345738 -0.088701094343 -3.267964811e-3 -0.031232203927
2.050000000000000 -2.337533435e-3 -0.031470042664 0.9955146251868 -0.089134536321 0.9955146251868 -0.089134536321 -3.300016146e-3 -0.031383815328
2.060000000000000 -2.360376839e-3 -0.031622896239 0.9954708028740 -0.089567958668 0.9954708028740 -0.089567958668 -3.332223537e-3 -0.031535405301
2.070000000000000 -2.383331533e-3 -0.031775740616 0.9954267676349 -0.090001361294 0.9954267676349 -0.090001361294 -3.364586980e-3 -0.031686973744
2.080000000000000 -2.406397525e-3 -0.031928575754 0.9953825194693 -0.090434744106 0.9953825194693 -0.090434744106 -3.397106472e-3 -0.031838520555
2.090000000000000 -2.429574819e-3 -0.032081401611 0.9953380583771 -0.090868107012 0.9953380583771 -0.090868107012 -3.429782009e-3 -0.031990045628
2.100000000000000 -2.452863423e-3 -0.032234218148 0.9952933843582 -0.091301449920 0.9952933843582 -0.091301449920 -3.462613586e-3 -0.032141548862
2.110000000000000 -2.476263341e-3 -0.032387025322 0.9952484974130 -0.091734772739 0.9952484974130 -0.091734772739 -3.495601198e-3 -0.032293030154
2.120000000000000 -2.499774580e-3 -0.032539823093 0.9952033975417 -0.092168075376 0.9952033975417 -0.092168075376 -3.528744842e-3 -0.032444489400
2.130000000000000 -2.523397145e-3 -0.032692611419 0.9951580847450 -0.092601357741 0.9951580847450 -0.092601357741 -3.562044512e-3 -0.032595926496
2.140000000000000 -2.547131042e-3 -0.032845390259 0.9951125590236 -0.093034619740 0.9951125590236 -0.093034619740 -3.595500203e-3 -0.032747341341
2.150000000000000 -2.570976275e-3 -0.032998159572 0.9950668203784 -0.093467861283 0.9950668203784 -0.093467861283 -3.629111910e-3 -0.032898733830
2.160000000000000 -2.594932851e-3 -0.033150919316 0.9950208688107 -0.093901082278 0.9950208688107 -0.093901082278 -3.662879627e-3 -0.033050103860
2.170000000000000 -2.619000773e-3 -0.033303669452 0.9949747043216 -0.094334282633 0.9949747043216 -0.094334282633 -3.696803348e-3 -0.033201451330
2.180000000000000 -2.643180048e-3 -0.033456409937 0.9949283269129 -0.094767462257 0.9949283269129 -0.094767462257 -3.730883068e-3 -0.033352776135
2.190000000000000 -2.667470680e-3 -0.033609140732 0.9948817365863 -0.095200621059 0.9948817365863 -0.095200621059 -3.765118778e-3 -0.033504078173
2.200000000000000 -2.691872672e-3 -0.033761861794 0.9948349333437 -0.095633758947 0.9948349333437 -0.095633758947 -3.799510474e-3 -0.033655357341
2.210000000000000 -2.716386031e-3 -0.033914573084 0.9947879171873 -0.096066875830 0.9947879171873 -0.096066875830 -3.834058148e-3 -0.033806613537
2.220000000000000 -2.741010759e-3 -0.034067274561 0.9947406881197 -0.096499971618 0.9947406881197 -0.096499971618 -3.868761792e-3 -0.033957846658
2.230000000000000 -2.765746862e-3 -0.034219966184 0.9946932461435 -0.096933046220 0.9946932461435 -0.096933046220 -3.903621400e-3 -0.034109056602
2.240000000000000 -2.790594343e-3 -0.034372647913 0.9946455912615 -0.097366099545 0.9946455912615 -0.097366099545 -3.938636963e-3 -0.034260243267
2.250000000000000 -2.815553205e-3 -0.034525319709 0.9945977234768 -0.097799131503 0.9945977234768 -0.097799131503 -3.973808473e-3 -0.034411406551
2.260000000000000 -2.840623453e-3 -0.034677981530 0.9945496427929 -0.098232142004 0.9945496427929 -0.098232142004 -4.009135922e-3 -0.034562546352
2.270000000000000 -2.865805089e-3 -0.034830633339 0.9945013492133 -0.098665130959 0.9945013492133 -0.098665130959 -4.044619302e-3 -0.034713662570
2.280000000000000 -2.891098117e-3 -0.034983275094 0.9944528427419 -0.099098098277 0.9944528427419 -0.099098098277 -4.080258603e-3 -0.034864755102
2.290000000000000 -2.916502540e-3 -0.035135906758 0.9944041233826 -0.099531043870 0.9944041233826 -0.099531043870 -4.116053816e-3 -0.035015823848
2.300000000000000 -2.942018361e-3 -0.035288528291 0.9943551911399 -0.099963967648 0.9943551911399 -0.099963967648 -4.152004931e-3 -0.035166868708
2.310000000000000 -2.967645583e-3 -0.035441139654 0.9943060460181 -0.100396869524 0.9943060460181 -0.100396869524 -4.188111939e-3 -0.035317889581
2.320000000000000 -2.993384208e-3 -0.035593740810 0.9942566880221 -0.100829749409 0.9942566880221 -0.100829749409 -4.224374830e-3 -0.035468886367
2.330000000000000 -3.019234238e-3 -0.035746331720 0.9942071171569 -0.101262607215 0.9942071171569 -0.101262607215 -4.260793593e-3 -0.035619858968
2.340000000000000 -3.045195676e-3 -0.035898912346 0.9941573334277 -0.101695442854 0.9941573334277 -0.101695442854 -4.297368218e-3 -0.035770807282
2.350000000000000 -3.071268523e-3 -0.036051482652 0.9941073368399 -0.102128256240 0.9941073368399 -0.102128256240 -4.334098693e-3 -0.035921731213
2.360000000000000 -3.097452782e-3 -0.036204042600 0.9940571273992 -0.102561047286 0.9940571273992 -0.102561047286 -4.370985007e-3 -0.036072630661
2.370000000000000 -3.123748454e-3 -0.036356592155 0.9940067051115 -0.102993815906 0.9940067051115 -0.102993815906 -4.408027150e-3 -0.036223505529
2.380000000000000 -3.150155541e-3 -0.036509131280 0.9939560699829 -0.103426562014 0.9939560699829 -0.103426562014 -4.445225108e-3 -0.036374355719
2.390000000000000 -3.176674045e-3 -0.036661659939 0.9939052220196 -0.103859285525 0.9939052220196 -0.103859285525 -4.482578870e-3 -0.036525181135
2.400000000000000 -3.203303966e-3 -0.036814178098 0.9938541612283 -0.104291986355 0.9938541612283 -0.104291986355 -4.520088424e-3 -0.036675981680
2.410000000000000 -3.230045305e-3 -0.036966685723 0.9938028876155 -0.104724664420 0.9938028876155 -0.104724664420 -4.557753757e-3 -0.036826757258
2.420000000000000 -3.256898065e-3 -0.037119182778 0.9937514011881 -0.105157319635 0.9937514011881 -0.105157319635 -4.595574856e-3 -0.036977507774
2.430000000000000 -3.283862245e-3 -0.037271669231 0.9936997019534 -0.105589951918 0.9936997019534 -0.105589951918 -4.633551708e-3 -0.037128233133
2.440000000000000 -3.310937846e-3 -0.037424145049 0.9936477899184 -0.106022561188 0.9936477899184 -0.106022561188 -4.671684301e-3 -0.037278933242
2.450000000000000 -3.338124869e-3 -0.037576610199 0.9935956650906 -0.106455147361 0.9935956650906 -0.106455147361 -4.709972619e-3 -0.037429608007
2.460000000000000 -3.365423316e-3 -0.037729064651 0.9935433274776 -0.106887710359 0.9935433274776 -0.106887710359 -4.748416651e-3 -0.037580257336
2.470000000000000 -3.392833185e-3 -0.037881508372 0.9934907770870 -0.107320250099 0.9934907770870 -0.107320250099 -4.787016381e-3 -0.037730881135
2.480000000000000 -3.420354479e-3 -0.038033941334 0.9934380139268 -0.107752766503 0.9934380139268 -0.107752766503 -4.825771796e-3 -0.037881479315
2.490000000000000 -3.447987196e-3 -0.038186363505 0.9933850380048 -0.108185259492 0.9933850380048 -0.108185259492 -4.864682881e-3 -0.038032051784
2.500000000000000 -3.475731338e-3 -0.038338774858 0.9933318493291 -0.108617728988 0.9933318493291 -0.108617728988 -4.903749622e-3 -0.038182598453
2.510000000000000 -3.503586905e-3 -0.038491175364 0.9932784479079 -0.109050174914 0.9932784479079 -0.109050174914 -4.942972004e-3 -0.038333119233
2.520000000000000 -3.531553897e-3 -0.038643564997 0.9932248337494 -0.109482597194 0.9932248337494 -0.109482597194 -4.982350012e-3 -0.038483614036
2.530000000000000 -3.559632314e-3 -0.038795943729 0.9931710068620 -0.109914995752 0.9931710068620 -0.109914995752 -5.021883632e-3 -0.038634082774
2.540000000000000 -3.587822157e-3 -0.038948311535 0.9931169672539 -0.110347370514 0.9931169672539 -0.110347370514 -5.061572849e-3 -0.038784525362
2.550000000000000 -3.616123427e-3 -0.039100668390 0.9930627149337 -0.110779721406 0.9930627149337 -0.110779721406 -5.101417647e-3 -0.038934941714
2.560000000000000 -3.644536123e-3 -0.039253014271 0.9930082499096 -0.111212048355 0.9930082499096 -0.111212048355 -5.141418011e-3 -0.039085331745
2.570000000000000 -3.673060247e-3 -0.039405349154 0.9929535721902 -0.111644351291 0.9929535721902 -0.111644351291 -5.181573926e-3 -0.039235695371
2.580000000000000 -3.701695798e-3 -0.039557673018 0.9928986817837 -0.112076630141 0.9928986817837 -0.112076630141 -5.221885377e-3 -0.039386032512
2.590000000000000 -3.730442777e-3 -0.039709985842 0.9928435786986 -0.112508884837 0.9928435786986 -0.112508884837 -5.262352348e-3 -0.039536343085
2.600000000000000 -3.759301186e-3 -0.039862287605 0.9927882629432 -0.112941115310 0.9927882629432 -0.112941115310 -5.302974823e-3 -0.039686627009
2.610000000000000 -3.788271025e-3 -0.040014578290 0.9927327345257 -0.113373321493 0.9927327345257 -0.113373321493 -5.343752789e-3 -0.039836884206
2.620000000000000 -3.817352295e-3 -0.040166857878 0.9926769934542 -0.113805503319 0.9926769934542 -0.113805503319 -5.384686228e-3 -0.039987114597
2.630000000000000 -3.846544998e-3 -0.040319126352 0.9926210397367 -0.114237660723 0.9926210397367 -0.114237660723 -5.425775126e-3 -0.040137318106
2.640000000000000 -3.875849135e-3 -0.040471383698 0.9925648733810 -0.114669793642 0.9925648733810 -0.114669793642 -5.467019469e-3 -0.040287494656
2.650000000000000 -3.905264708e-3 -0.040623629900 0.9925084943948 -0.115101902011 0.9925084943948 -0.115101902011 -5.508419239e-3 -0.040437644173
2.660000000000000 -3.934791719e-3 -0.040775864945 0.9924519027857 -0.115533985771 0.9924519027857 -0.115533985771 -5.549974424e-3 -0.040587766585
2.670000000000000 -3.964430170e-3 -0.040928088823 0.9923950985607 -0.115966044861 0.9923950985607 -0.115966044861 -5.591685007e-3 -0.040737861818
2.680000000000000 -3.994180065e-3 -0.041080301521 0.9923380817270 -0.116398079222 0.9923380817270 -0.116398079222 -5.633550975e-3 -0.040887929803
2.690000000000000 -4.024041406e-3 -0.041232503031 0.9922808522913 -0.116830088796 0.9922808522913 -0.116830088796 -5.675572313e-3 -0.041037970470
2.700000000000000 -4.054014197e-3 -0.041384693346 0.9922234102599 -0.117262073528 0.9922234102599 -0.117262073528 -5.717749006e-3 -0.041187983751
2.710000000000000 -4.084098441e-3 -0.041536872457 0.9921657556390 -0.117694033363 0.9921657556390 -0.117694033363 -5.760081042e-3 -0.041337969579
2.720000000000000 -4.114294143e-3 -0.041689040360 0.9921078884342 -0.118125968247 0.9921078884342 -0.118125968247 -5.802568405e-3 -0.041487927891
2.730000000000000 -4.144601308e-3 -0.041841197052 0.9920498086508 -0.118557878129 0.9920498086508 -0.118557878129 -5.845211083e-3 -0.041637858621
2.740000000000000 -4.175019940e-3 -0.041993342529 0.9919915162936 -0.118989762958 0.9919915162936 -0.118989762958 -5.888009063e-3 -0.041787761709
2.750000000000000 -4.205550047e-3 -0.042145476792 0.9919330113671 -0.119421622686 0.9919330113671 -0.119421622686 -5.930962333e-3 -0.041937637093
2.760000000000000 -4.236191633e-3 -0.042297599842 0.9918742938752 -0.119853457267 0.9918742938752 -0.119853457267 -5.974070880e-3 -0.042087484715
2.770000000000000 -4.266944707e-3 -0.042449711679 0.9918153638210 -0.120285266654 0.9918153638210 -0.120285266654 -6.017334692e-3 -0.042237304518
2.780000000000000 -4.297809277e-3 -0.042601812309 0.9917562212074 -0.120717050804 0.9917562212074 -0.120717050804 -6.060753760e-3 -0.042387096447
2.790000000000000 -4.328785350e-3 -0.042753901738 0.9916968660364 -0.121148809674 0.9916968660364 -0.121148809674 -6.104328071e-3 -0.042536860446
2.800000000000000 -4.359872935e-3 -0.042905979972 0.9916372983096 -0.121580543225 0.9916372983096 -0.121580543225 -6.148057615e-3 -0.042686596466
2.810000000000000 -4.391072044e-3 -0.043058047020 0.9915775180276 -0.122012251418 0.9915775180276 -0.122012251418 -6.191942385e-3 -0.042836304454
2.820000000000000 -4.422382687e-3 -0.043210102894 0.9915175251904 -0.122443934217 0.9915175251904 -0.122443934217 -6.235982370e-3 -0.042985984363
2.830000000000000 -4.453804875e-3 -0.043362147607 0.9914573197973 -0.122875591586 0.9914573197973 -0.122875591586 -6.280177563e-3 -0.043135636146
2.840000000000000 -4.485338621e-3 -0.043514181172 0.9913969018466 -0.123307223492 0.9913969018466 -0.123307223492 -6.324527956e-3 -0.043285259759
2.850000000000000 -4.516983939e-3 -0.043666203606 0.9913362713357 -0.123738829906 0.9913362713357 -0.123738829906 -6.369033543e-3 -0.043434855158
2.860000000000000 -4.548740844e-3 -0.043818214928 0.9912754282612 -0.124170410796 0.9912754282612 -0.124170410796 -6.413694318e-3 -0.043584422303
2.870000000000000 -4.580609351e-3 -0.043970215158 0.9912143726186 -0.124601966138 0.9912143726186 -0.124601966138 -6.458510277e-3 -0.043733961155
2.880000000000000 -4.612589477e-3 -0.044122204318 0.9911531044024 -0.125033495905 0.9911531044024 -0.125033495905 -6.503481415e-3 -0.043883471678
2.890000000000000 -4.644681241e-3 -0.044274182432 0.9910916236061 -0.125465000075 0.9910916236061 -0.125465000075 -6.548607731e-3 -0.044032953836
2.900000000000000 -4.676884662e-3 -0.044426149527 0.9910299302220 -0.125896478627 0.9910299302220 -0.125896478627 -6.593889221e-3 -0.044182407598
2.910000000000000 -4.709199760e-3 -0.044578105632 0.9909680242410 -0.126327931543 0.9909680242410 -0.126327931543 -6.639325886e-3 -0.044331832933
2.920000000000000 -4.741626557e-3 -0.044730050778 0.9909059056531 -0.126759358806 0.9909059056531 -0.126759358806 -6.684917725e-3 -0.044481229813
2.930000000000000 -4.774165077e-3 -0.044881984997 0.9908435744468 -0.127190760402 0.9908435744468 -0.127190760402 -6.730664741e-3 -0.044630598212
2.940000000000000 -4.806815345e-3 -0.045033908325 0.9907810306091 -0.127622136320 0.9907810306091 -0.127622136320 -6.776566936e-3 -0.044779938107
2.950000000000000 -4.839577388e-3 -0.045185820799 0.9907182741257 -0.128053486550 0.9907182741257 -0.128053486550 -6.822624314e-3 -0.044929249476
2.960000000000000 -4.872451233e-3 -0.045337722459 0.9906553049809 -0.128484811086 0.9906553049809 -0.128484811086 -6.868836882e-3 -0.045078532302
2.970000000000000 -4.905436910e-3 -0.045489613348 0.9905921231573 -0.128916109923 0.9905921231573 -0.128916109923 -6.915204646e-3 -0.045227786567
2.980000000000000 -4.938534450e-3 -0.045641493511 0.9905287286359 -0.129347383058 0.9905287286359 -0.129347383058 -6.961727616e-3 -0.045377012258
2.990000000000000 -4.971743888e-3 -0.045793362994 0.9904651213959 -0.129778630492 0.9904651213959 -0.129778630492 -7.008405800e-3 -0.045526209364
3.000000000000000 -5.005065258e-3 -0.045945221849 0.9904013014147 -0.130209852230 0.9904013014147 -0.130209852230 -7.055239211e-3 -0.045675377875
! P1 F=3.0 Eeff=(6.35592 - j6.577e-05) Z0=(53.4102 + j0.000276468)
! P2 F=3.0 Eeff=(6.35592 - j6.577e-05) Z0=(53.4102 + j0.000276468)
